^C:\GSL-1.16\CBLAS\CAXPY.C|C:\GSL-1.16\CBLAS\CCOPY.C|C:\GSL-1.16\CBLAS\CDOTC_SUB.C|C:\GSL-1.16\CBLAS\CDOTU_SUB.C|C:\GSL-1.16\CBLAS\CGBMV.C|C:\GSL-1.16\CBLAS\CGEMM.C|C:\GSL-1.16\CBLAS\CGEMV.C|C:\GSL-1.16\CBLAS\CGERC.C|C:\GSL-1.16\CBLAS\CGERU.C|C:\GSL-1.16\CBLAS\CHBMV.C|C:\GSL-1.16\CBLAS\CHEMM.C|C:\GSL-1.16\CBLAS\CHEMV.C|C:\GSL-1.16\CBLAS\CHER.C|C:\GSL-1.16\CBLAS\CHER2.C|C:\GSL-1.16\CBLAS\CHER2K.C|C:\GSL-1.16\CBLAS\CHERK.C|C:\GSL-1.16\CBLAS\CHPMV.C|C:\GSL-1.16\CBLAS\CHPR.C|C:\GSL-1.16\CBLAS\CHPR2.C|C:\GSL-1.16\CBLAS\CSCAL.C|C:\GSL-1.16\CBLAS\CSSCAL.C|C:\GSL-1.16\CBLAS\CSWAP.C|C:\GSL-1.16\CBLAS\CSYMM.C|C:\GSL-1.16\CBLAS\CSYR2K.C|C:\GSL-1.16\CBLAS\CSYRK.C|C:\GSL-1.16\CBLAS\CTBMV.C|C:\GSL-1.16\CBLAS\CTBSV.C|C:\GSL-1.16\CBLAS\CTPMV.C|C:\GSL-1.16\CBLAS\CTPSV.C|C:\GSL-1.16\CBLAS\CTRMM.C|C:\GSL-1.16\CBLAS\CTRMV.C|C:\GSL-1.16\CBLAS\CTRSM.C|C:\GSL-1.16\CBLAS\CTRSV.C|C:\GSL-1.16\CBLAS\DASUM.C|C:\GSL-1.16\CBLAS\DAXPY.C|C:\GSL-1.16\CBLAS\DCOPY.C|C:\GSL-1.16\CBLAS\DDOT.C|C:\GSL-1.16\CBLAS\DGBMV.C|C:\GSL-1.16\CBLAS\DGEMM.C|C:\GSL-1.16\CBLAS\DGEMV.C|C:\GSL-1.16\CBLAS\DGER.C|C:\GSL-1.16\CBLAS\DNRM2.C|C:\GSL-1.16\CBLAS\DROT.C|C:\GSL-1.16\CBLAS\DROTG.C|C:\GSL-1.16\CBLAS\DROTM.C|C:\GSL-1.16\CBLAS\DROTMG.C|C:\GSL-1.16\CBLAS\DSBMV.C|C:\GSL-1.16\CBLAS\DSCAL.C|C:\GSL-1.16\CBLAS\DSDOT.C|C:\GSL-1.16\CBLAS\DSPMV.C|C:\GSL-1.16\CBLAS\DSPR.C|C:\GSL-1.16\CBLAS\DSPR2.C|C:\GSL-1.16\CBLAS\DSWAP.C|C:\GSL-1.16\CBLAS\DSYMM.C|C:\GSL-1.16\CBLAS\DSYMV.C|C:\GSL-1.16\CBLAS\DSYR.C|C:\GSL-1.16\CBLAS\DSYR2.C|C:\GSL-1.16\CBLAS\DSYR2K.C|C:\GSL-1.16\CBLAS\DSYRK.C|C:\GSL-1.16\CBLAS\DTBMV.C|C:\GSL-1.16\CBLAS\DTBSV.C|C:\GSL-1.16\CBLAS\DTPMV.C|C:\GSL-1.16\CBLAS\DTPSV.C|C:\GSL-1.16\CBLAS\DTRMM.C|C:\GSL-1.16\CBLAS\DTRMV.C|C:\GSL-1.16\CBLAS\DTRSM.C|C:\GSL-1.16\CBLAS\DTRSV.C|C:\GSL-1.16\CBLAS\DZASUM.C|C:\GSL-1.16\CBLAS\DZNRM2.C|C:\GSL-1.16\CBLAS\ICAMAX.C|C:\GSL-1.16\CBLAS\IDAMAX.C|C:\GSL-1.16\CBLAS\ISAMAX.C|C:\GSL-1.16\CBLAS\IZAMAX.C|C:\GSL-1.16\CBLAS\SASUM.C|C:\GSL-1.16\CBLAS\SAXPY.C|C:\GSL-1.16\CBLAS\SCASUM.C|C:\GSL-1.16\CBLAS\SCNRM2.C|C:\GSL-1.16\CBLAS\SCOPY.C|C:\GSL-1.16\CBLAS\SDOT.C|C:\GSL-1.16\CBLAS\SDSDOT.C|C:\GSL-1.16\CBLAS\SGBMV.C|C:\GSL-1.16\CBLAS\SGEMM.C|C:\GSL-1.16\CBLAS\SGEMV.C|C:\GSL-1.16\CBLAS\SGER.C|C:\GSL-1.16\CBLAS\SNRM2.C|C:\GSL-1.16\CBLAS\SROT.C|C:\GSL-1.16\CBLAS\SROTG.C|C:\GSL-1.16\CBLAS\SROTM.C|C:\GSL-1.16\CBLAS\SROTMG.C|C:\GSL-1.16\CBLAS\SSBMV.C|C:\GSL-1.16\CBLAS\SSCAL.C|C:\GSL-1.16\CBLAS\SSPMV.C|C:\GSL-1.16\CBLAS\SSPR.C|C:\GSL-1.16\CBLAS\SSPR2.C|C:\GSL-1.16\CBLAS\SSWAP.C|C:\GSL-1.16\CBLAS\SSYMM.C|C:\GSL-1.16\CBLAS\SSYMV.C|C:\GSL-1.16\CBLAS\SSYR.C|C:\GSL-1.16\CBLAS\SSYR2.C|C:\GSL-1.16\CBLAS\SSYR2K.C|C:\GSL-1.16\CBLAS\SSYRK.C|C:\GSL-1.16\CBLAS\STBMV.C|C:\GSL-1.16\CBLAS\STBSV.C|C:\GSL-1.16\CBLAS\STPMV.C|C:\GSL-1.16\CBLAS\STPSV.C|C:\GSL-1.16\CBLAS\STRMM.C|C:\GSL-1.16\CBLAS\STRMV.C|C:\GSL-1.16\CBLAS\STRSM.C|C:\GSL-1.16\CBLAS\STRSV.C|C:\GSL-1.16\CBLAS\XERBLA.C|C:\GSL-1.16\CBLAS\ZAXPY.C|C:\GSL-1.16\CBLAS\ZCOPY.C|C:\GSL-1.16\CBLAS\ZDOTC_SUB.C|C:\GSL-1.16\CBLAS\ZDOTU_SUB.C|C:\GSL-1.16\CBLAS\ZDSCAL.C|C:\GSL-1.16\CBLAS\ZGBMV.C|C:\GSL-1.16\CBLAS\ZGEMM.C|C:\GSL-1.16\CBLAS\ZGEMV.C|C:\GSL-1.16\CBLAS\ZGERC.C|C:\GSL-1.16\CBLAS\ZGERU.C|C:\GSL-1.16\CBLAS\ZHBMV.C|C:\GSL-1.16\CBLAS\ZHEMM.C|C:\GSL-1.16\CBLAS\ZHEMV.C|C:\GSL-1.16\CBLAS\ZHER.C|C:\GSL-1.16\CBLAS\ZHER2.C|C:\GSL-1.16\CBLAS\ZHER2K.C|C:\GSL-1.16\CBLAS\ZHERK.C|C:\GSL-1.16\CBLAS\ZHPMV.C|C:\GSL-1.16\CBLAS\ZHPR.C|C:\GSL-1.16\CBLAS\ZHPR2.C|C:\GSL-1.16\CBLAS\ZSCAL.C|C:\GSL-1.16\CBLAS\ZSWAP.C|C:\GSL-1.16\CBLAS\ZSYMM.C|C:\GSL-1.16\CBLAS\ZSYR2K.C|C:\GSL-1.16\CBLAS\ZSYRK.C|C:\GSL-1.16\CBLAS\ZTBMV.C|C:\GSL-1.16\CBLAS\ZTBSV.C|C:\GSL-1.16\CBLAS\ZTPMV.C|C:\GSL-1.16\CBLAS\ZTPSV.C|C:\GSL-1.16\CBLAS\ZTRMM.C|C:\GSL-1.16\CBLAS\ZTRMV.C|C:\GSL-1.16\CBLAS\ZTRSM.C|C:\GSL-1.16\CBLAS\ZTRSV.C
C:\GSL-1.16\LIB\WIN32\RELEASE\CBLAS.PDB
C:\GSL-1.16\BUILD.VC11\CBLASLIB\WIN32\RELEASE\CSCAL.OBJ
C:\GSL-1.16\BUILD.VC11\CBLASLIB\WIN32\RELEASE\CHPR2.OBJ
C:\GSL-1.16\BUILD.VC11\CBLASLIB\WIN32\RELEASE\CHPR.OBJ
C:\GSL-1.16\BUILD.VC11\CBLASLIB\WIN32\RELEASE\CHPMV.OBJ
C:\GSL-1.16\BUILD.VC11\CBLASLIB\WIN32\RELEASE\CHERK.OBJ
C:\GSL-1.16\BUILD.VC11\CBLASLIB\WIN32\RELEASE\CHER2K.OBJ
C:\GSL-1.16\BUILD.VC11\CBLASLIB\WIN32\RELEASE\CHER2.OBJ
C:\GSL-1.16\BUILD.VC11\CBLASLIB\WIN32\RELEASE\CHER.OBJ
C:\GSL-1.16\BUILD.VC11\CBLASLIB\WIN32\RELEASE\CHEMV.OBJ
C:\GSL-1.16\BUILD.VC11\CBLASLIB\WIN32\RELEASE\CHEMM.OBJ
C:\GSL-1.16\BUILD.VC11\CBLASLIB\WIN32\RELEASE\CHBMV.OBJ
C:\GSL-1.16\BUILD.VC11\CBLASLIB\WIN32\RELEASE\CGERU.OBJ
C:\GSL-1.16\BUILD.VC11\CBLASLIB\WIN32\RELEASE\CGERC.OBJ
C:\GSL-1.16\BUILD.VC11\CBLASLIB\WIN32\RELEASE\CGEMV.OBJ
C:\GSL-1.16\BUILD.VC11\CBLASLIB\WIN32\RELEASE\CGEMM.OBJ
C:\GSL-1.16\BUILD.VC11\CBLASLIB\WIN32\RELEASE\CGBMV.OBJ
C:\GSL-1.16\BUILD.VC11\CBLASLIB\WIN32\RELEASE\CDOTU_SUB.OBJ
C:\GSL-1.16\BUILD.VC11\CBLASLIB\WIN32\RELEASE\CDOTC_SUB.OBJ
C:\GSL-1.16\BUILD.VC11\CBLASLIB\WIN32\RELEASE\CCOPY.OBJ
C:\GSL-1.16\BUILD.VC11\CBLASLIB\WIN32\RELEASE\CAXPY.OBJ
C:\GSL-1.16\BUILD.VC11\CBLASLIB\WIN32\RELEASE\DGEMV.OBJ
C:\GSL-1.16\BUILD.VC11\CBLASLIB\WIN32\RELEASE\DGEMM.OBJ
C:\GSL-1.16\BUILD.VC11\CBLASLIB\WIN32\RELEASE\DGBMV.OBJ
C:\GSL-1.16\BUILD.VC11\CBLASLIB\WIN32\RELEASE\DDOT.OBJ
C:\GSL-1.16\BUILD.VC11\CBLASLIB\WIN32\RELEASE\DCOPY.OBJ
C:\GSL-1.16\BUILD.VC11\CBLASLIB\WIN32\RELEASE\DAXPY.OBJ
C:\GSL-1.16\BUILD.VC11\CBLASLIB\WIN32\RELEASE\DASUM.OBJ
C:\GSL-1.16\BUILD.VC11\CBLASLIB\WIN32\RELEASE\CTRSV.OBJ
C:\GSL-1.16\BUILD.VC11\CBLASLIB\WIN32\RELEASE\CTRSM.OBJ
C:\GSL-1.16\BUILD.VC11\CBLASLIB\WIN32\RELEASE\CTRMV.OBJ
C:\GSL-1.16\BUILD.VC11\CBLASLIB\WIN32\RELEASE\CTRMM.OBJ
C:\GSL-1.16\BUILD.VC11\CBLASLIB\WIN32\RELEASE\CTPSV.OBJ
C:\GSL-1.16\BUILD.VC11\CBLASLIB\WIN32\RELEASE\CTPMV.OBJ
C:\GSL-1.16\BUILD.VC11\CBLASLIB\WIN32\RELEASE\CTBSV.OBJ
C:\GSL-1.16\BUILD.VC11\CBLASLIB\WIN32\RELEASE\CTBMV.OBJ
C:\GSL-1.16\BUILD.VC11\CBLASLIB\WIN32\RELEASE\CSYRK.OBJ
C:\GSL-1.16\BUILD.VC11\CBLASLIB\WIN32\RELEASE\CSYR2K.OBJ
C:\GSL-1.16\BUILD.VC11\CBLASLIB\WIN32\RELEASE\CSYMM.OBJ
C:\GSL-1.16\BUILD.VC11\CBLASLIB\WIN32\RELEASE\CSWAP.OBJ
C:\GSL-1.16\BUILD.VC11\CBLASLIB\WIN32\RELEASE\CSSCAL.OBJ
C:\GSL-1.16\BUILD.VC11\CBLASLIB\WIN32\RELEASE\DTBMV.OBJ
C:\GSL-1.16\BUILD.VC11\CBLASLIB\WIN32\RELEASE\DSYRK.OBJ
C:\GSL-1.16\BUILD.VC11\CBLASLIB\WIN32\RELEASE\DSYR2K.OBJ
C:\GSL-1.16\BUILD.VC11\CBLASLIB\WIN32\RELEASE\DSYR2.OBJ
C:\GSL-1.16\BUILD.VC11\CBLASLIB\WIN32\RELEASE\DSYR.OBJ
C:\GSL-1.16\BUILD.VC11\CBLASLIB\WIN32\RELEASE\DSYMV.OBJ
C:\GSL-1.16\BUILD.VC11\CBLASLIB\WIN32\RELEASE\DSYMM.OBJ
C:\GSL-1.16\BUILD.VC11\CBLASLIB\WIN32\RELEASE\DSWAP.OBJ
C:\GSL-1.16\BUILD.VC11\CBLASLIB\WIN32\RELEASE\DSPR2.OBJ
C:\GSL-1.16\BUILD.VC11\CBLASLIB\WIN32\RELEASE\DSPR.OBJ
C:\GSL-1.16\BUILD.VC11\CBLASLIB\WIN32\RELEASE\DSPMV.OBJ
C:\GSL-1.16\BUILD.VC11\CBLASLIB\WIN32\RELEASE\DSDOT.OBJ
C:\GSL-1.16\BUILD.VC11\CBLASLIB\WIN32\RELEASE\DSCAL.OBJ
C:\GSL-1.16\BUILD.VC11\CBLASLIB\WIN32\RELEASE\DSBMV.OBJ
C:\GSL-1.16\BUILD.VC11\CBLASLIB\WIN32\RELEASE\DROTMG.OBJ
C:\GSL-1.16\BUILD.VC11\CBLASLIB\WIN32\RELEASE\DROTM.OBJ
C:\GSL-1.16\BUILD.VC11\CBLASLIB\WIN32\RELEASE\DROTG.OBJ
C:\GSL-1.16\BUILD.VC11\CBLASLIB\WIN32\RELEASE\DROT.OBJ
C:\GSL-1.16\BUILD.VC11\CBLASLIB\WIN32\RELEASE\DNRM2.OBJ
C:\GSL-1.16\BUILD.VC11\CBLASLIB\WIN32\RELEASE\DGER.OBJ
C:\GSL-1.16\BUILD.VC11\CBLASLIB\WIN32\RELEASE\SDSDOT.OBJ
C:\GSL-1.16\BUILD.VC11\CBLASLIB\WIN32\RELEASE\SDOT.OBJ
C:\GSL-1.16\BUILD.VC11\CBLASLIB\WIN32\RELEASE\SCOPY.OBJ
C:\GSL-1.16\BUILD.VC11\CBLASLIB\WIN32\RELEASE\SCNRM2.OBJ
C:\GSL-1.16\BUILD.VC11\CBLASLIB\WIN32\RELEASE\SCASUM.OBJ
C:\GSL-1.16\BUILD.VC11\CBLASLIB\WIN32\RELEASE\SAXPY.OBJ
C:\GSL-1.16\BUILD.VC11\CBLASLIB\WIN32\RELEASE\SASUM.OBJ
C:\GSL-1.16\BUILD.VC11\CBLASLIB\WIN32\RELEASE\IZAMAX.OBJ
C:\GSL-1.16\BUILD.VC11\CBLASLIB\WIN32\RELEASE\ISAMAX.OBJ
C:\GSL-1.16\BUILD.VC11\CBLASLIB\WIN32\RELEASE\IDAMAX.OBJ
C:\GSL-1.16\BUILD.VC11\CBLASLIB\WIN32\RELEASE\ICAMAX.OBJ
C:\GSL-1.16\BUILD.VC11\CBLASLIB\WIN32\RELEASE\DZNRM2.OBJ
C:\GSL-1.16\BUILD.VC11\CBLASLIB\WIN32\RELEASE\DZASUM.OBJ
C:\GSL-1.16\BUILD.VC11\CBLASLIB\WIN32\RELEASE\DTRSV.OBJ
C:\GSL-1.16\BUILD.VC11\CBLASLIB\WIN32\RELEASE\DTRSM.OBJ
C:\GSL-1.16\BUILD.VC11\CBLASLIB\WIN32\RELEASE\DTRMV.OBJ
C:\GSL-1.16\BUILD.VC11\CBLASLIB\WIN32\RELEASE\DTRMM.OBJ
C:\GSL-1.16\BUILD.VC11\CBLASLIB\WIN32\RELEASE\DTPSV.OBJ
C:\GSL-1.16\BUILD.VC11\CBLASLIB\WIN32\RELEASE\DTPMV.OBJ
C:\GSL-1.16\BUILD.VC11\CBLASLIB\WIN32\RELEASE\DTBSV.OBJ
C:\GSL-1.16\BUILD.VC11\CBLASLIB\WIN32\RELEASE\SSYR2K.OBJ
C:\GSL-1.16\BUILD.VC11\CBLASLIB\WIN32\RELEASE\SSYR2.OBJ
C:\GSL-1.16\BUILD.VC11\CBLASLIB\WIN32\RELEASE\SSYR.OBJ
C:\GSL-1.16\BUILD.VC11\CBLASLIB\WIN32\RELEASE\SSYMV.OBJ
C:\GSL-1.16\BUILD.VC11\CBLASLIB\WIN32\RELEASE\SSYMM.OBJ
C:\GSL-1.16\BUILD.VC11\CBLASLIB\WIN32\RELEASE\SSWAP.OBJ
C:\GSL-1.16\BUILD.VC11\CBLASLIB\WIN32\RELEASE\SSPR2.OBJ
C:\GSL-1.16\BUILD.VC11\CBLASLIB\WIN32\RELEASE\SSPR.OBJ
C:\GSL-1.16\BUILD.VC11\CBLASLIB\WIN32\RELEASE\SSPMV.OBJ
C:\GSL-1.16\BUILD.VC11\CBLASLIB\WIN32\RELEASE\SSCAL.OBJ
C:\GSL-1.16\BUILD.VC11\CBLASLIB\WIN32\RELEASE\SSBMV.OBJ
C:\GSL-1.16\BUILD.VC11\CBLASLIB\WIN32\RELEASE\SROTMG.OBJ
C:\GSL-1.16\BUILD.VC11\CBLASLIB\WIN32\RELEASE\SROTM.OBJ
C:\GSL-1.16\BUILD.VC11\CBLASLIB\WIN32\RELEASE\SROTG.OBJ
C:\GSL-1.16\BUILD.VC11\CBLASLIB\WIN32\RELEASE\SROT.OBJ
C:\GSL-1.16\BUILD.VC11\CBLASLIB\WIN32\RELEASE\SNRM2.OBJ
C:\GSL-1.16\BUILD.VC11\CBLASLIB\WIN32\RELEASE\SGER.OBJ
C:\GSL-1.16\BUILD.VC11\CBLASLIB\WIN32\RELEASE\SGEMV.OBJ
C:\GSL-1.16\BUILD.VC11\CBLASLIB\WIN32\RELEASE\SGEMM.OBJ
C:\GSL-1.16\BUILD.VC11\CBLASLIB\WIN32\RELEASE\SGBMV.OBJ
C:\GSL-1.16\BUILD.VC11\CBLASLIB\WIN32\RELEASE\ZGERU.OBJ
C:\GSL-1.16\BUILD.VC11\CBLASLIB\WIN32\RELEASE\ZGERC.OBJ
C:\GSL-1.16\BUILD.VC11\CBLASLIB\WIN32\RELEASE\ZGEMV.OBJ
C:\GSL-1.16\BUILD.VC11\CBLASLIB\WIN32\RELEASE\ZGEMM.OBJ
C:\GSL-1.16\BUILD.VC11\CBLASLIB\WIN32\RELEASE\ZGBMV.OBJ
C:\GSL-1.16\BUILD.VC11\CBLASLIB\WIN32\RELEASE\ZDSCAL.OBJ
C:\GSL-1.16\BUILD.VC11\CBLASLIB\WIN32\RELEASE\ZDOTU_SUB.OBJ
C:\GSL-1.16\BUILD.VC11\CBLASLIB\WIN32\RELEASE\ZDOTC_SUB.OBJ
C:\GSL-1.16\BUILD.VC11\CBLASLIB\WIN32\RELEASE\ZCOPY.OBJ
C:\GSL-1.16\BUILD.VC11\CBLASLIB\WIN32\RELEASE\ZAXPY.OBJ
C:\GSL-1.16\BUILD.VC11\CBLASLIB\WIN32\RELEASE\XERBLA.OBJ
C:\GSL-1.16\BUILD.VC11\CBLASLIB\WIN32\RELEASE\STRSV.OBJ
C:\GSL-1.16\BUILD.VC11\CBLASLIB\WIN32\RELEASE\STRSM.OBJ
C:\GSL-1.16\BUILD.VC11\CBLASLIB\WIN32\RELEASE\STRMV.OBJ
C:\GSL-1.16\BUILD.VC11\CBLASLIB\WIN32\RELEASE\STRMM.OBJ
C:\GSL-1.16\BUILD.VC11\CBLASLIB\WIN32\RELEASE\STPSV.OBJ
C:\GSL-1.16\BUILD.VC11\CBLASLIB\WIN32\RELEASE\STPMV.OBJ
C:\GSL-1.16\BUILD.VC11\CBLASLIB\WIN32\RELEASE\STBSV.OBJ
C:\GSL-1.16\BUILD.VC11\CBLASLIB\WIN32\RELEASE\STBMV.OBJ
C:\GSL-1.16\BUILD.VC11\CBLASLIB\WIN32\RELEASE\SSYRK.OBJ
C:\GSL-1.16\BUILD.VC11\CBLASLIB\WIN32\RELEASE\ZTRMM.OBJ
C:\GSL-1.16\BUILD.VC11\CBLASLIB\WIN32\RELEASE\ZTPSV.OBJ
C:\GSL-1.16\BUILD.VC11\CBLASLIB\WIN32\RELEASE\ZTPMV.OBJ
C:\GSL-1.16\BUILD.VC11\CBLASLIB\WIN32\RELEASE\ZTBSV.OBJ
C:\GSL-1.16\BUILD.VC11\CBLASLIB\WIN32\RELEASE\ZTBMV.OBJ
C:\GSL-1.16\BUILD.VC11\CBLASLIB\WIN32\RELEASE\ZSYRK.OBJ
C:\GSL-1.16\BUILD.VC11\CBLASLIB\WIN32\RELEASE\ZSYR2K.OBJ
C:\GSL-1.16\BUILD.VC11\CBLASLIB\WIN32\RELEASE\ZSYMM.OBJ
C:\GSL-1.16\BUILD.VC11\CBLASLIB\WIN32\RELEASE\ZSWAP.OBJ
C:\GSL-1.16\BUILD.VC11\CBLASLIB\WIN32\RELEASE\ZSCAL.OBJ
C:\GSL-1.16\BUILD.VC11\CBLASLIB\WIN32\RELEASE\ZHPR2.OBJ
C:\GSL-1.16\BUILD.VC11\CBLASLIB\WIN32\RELEASE\ZHPR.OBJ
C:\GSL-1.16\BUILD.VC11\CBLASLIB\WIN32\RELEASE\ZHPMV.OBJ
C:\GSL-1.16\BUILD.VC11\CBLASLIB\WIN32\RELEASE\ZHERK.OBJ
C:\GSL-1.16\BUILD.VC11\CBLASLIB\WIN32\RELEASE\ZHER2K.OBJ
C:\GSL-1.16\BUILD.VC11\CBLASLIB\WIN32\RELEASE\ZHER2.OBJ
C:\GSL-1.16\BUILD.VC11\CBLASLIB\WIN32\RELEASE\ZHER.OBJ
C:\GSL-1.16\BUILD.VC11\CBLASLIB\WIN32\RELEASE\ZHEMV.OBJ
C:\GSL-1.16\BUILD.VC11\CBLASLIB\WIN32\RELEASE\ZHEMM.OBJ
C:\GSL-1.16\BUILD.VC11\CBLASLIB\WIN32\RELEASE\ZHBMV.OBJ
C:\GSL-1.16\BUILD.VC11\CBLASLIB\WIN32\RELEASE\ZTRSV.OBJ
C:\GSL-1.16\BUILD.VC11\CBLASLIB\WIN32\RELEASE\ZTRSM.OBJ
C:\GSL-1.16\BUILD.VC11\CBLASLIB\WIN32\RELEASE\ZTRMV.OBJ
^C:\GSL-1.16\CBLAS\CAXPY.C
C:\GSL-1.16\LIB\WIN32\RELEASE\CBLAS.PDB
^C:\GSL-1.16\CBLAS\CCOPY.C
C:\GSL-1.16\LIB\WIN32\RELEASE\CBLAS.PDB
^C:\GSL-1.16\CBLAS\CDOTC_SUB.C
C:\GSL-1.16\LIB\WIN32\RELEASE\CBLAS.PDB
^C:\GSL-1.16\CBLAS\CDOTU_SUB.C
C:\GSL-1.16\LIB\WIN32\RELEASE\CBLAS.PDB
^C:\GSL-1.16\CBLAS\CGBMV.C
C:\GSL-1.16\LIB\WIN32\RELEASE\CBLAS.PDB
^C:\GSL-1.16\CBLAS\CGEMM.C
C:\GSL-1.16\LIB\WIN32\RELEASE\CBLAS.PDB
^C:\GSL-1.16\CBLAS\CGEMV.C
C:\GSL-1.16\LIB\WIN32\RELEASE\CBLAS.PDB
^C:\GSL-1.16\CBLAS\CGERC.C
C:\GSL-1.16\LIB\WIN32\RELEASE\CBLAS.PDB
^C:\GSL-1.16\CBLAS\CGERU.C
C:\GSL-1.16\LIB\WIN32\RELEASE\CBLAS.PDB
^C:\GSL-1.16\CBLAS\CHBMV.C
C:\GSL-1.16\LIB\WIN32\RELEASE\CBLAS.PDB
^C:\GSL-1.16\CBLAS\CHEMM.C
C:\GSL-1.16\LIB\WIN32\RELEASE\CBLAS.PDB
^C:\GSL-1.16\CBLAS\CHEMV.C
C:\GSL-1.16\LIB\WIN32\RELEASE\CBLAS.PDB
^C:\GSL-1.16\CBLAS\CHER.C
C:\GSL-1.16\LIB\WIN32\RELEASE\CBLAS.PDB
^C:\GSL-1.16\CBLAS\CHER2.C
C:\GSL-1.16\LIB\WIN32\RELEASE\CBLAS.PDB
^C:\GSL-1.16\CBLAS\CHER2K.C
C:\GSL-1.16\LIB\WIN32\RELEASE\CBLAS.PDB
^C:\GSL-1.16\CBLAS\CHERK.C
C:\GSL-1.16\LIB\WIN32\RELEASE\CBLAS.PDB
^C:\GSL-1.16\CBLAS\CHPMV.C
C:\GSL-1.16\LIB\WIN32\RELEASE\CBLAS.PDB
^C:\GSL-1.16\CBLAS\CHPR.C
C:\GSL-1.16\LIB\WIN32\RELEASE\CBLAS.PDB
^C:\GSL-1.16\CBLAS\CHPR2.C
C:\GSL-1.16\LIB\WIN32\RELEASE\CBLAS.PDB
^C:\GSL-1.16\CBLAS\CSCAL.C
C:\GSL-1.16\LIB\WIN32\RELEASE\CBLAS.PDB
^C:\GSL-1.16\CBLAS\CSSCAL.C
C:\GSL-1.16\LIB\WIN32\RELEASE\CBLAS.PDB
^C:\GSL-1.16\CBLAS\CSWAP.C
C:\GSL-1.16\LIB\WIN32\RELEASE\CBLAS.PDB
^C:\GSL-1.16\CBLAS\CSYMM.C
C:\GSL-1.16\LIB\WIN32\RELEASE\CBLAS.PDB
^C:\GSL-1.16\CBLAS\CSYR2K.C
C:\GSL-1.16\LIB\WIN32\RELEASE\CBLAS.PDB
^C:\GSL-1.16\CBLAS\CSYRK.C
C:\GSL-1.16\LIB\WIN32\RELEASE\CBLAS.PDB
^C:\GSL-1.16\CBLAS\CTBMV.C
C:\GSL-1.16\LIB\WIN32\RELEASE\CBLAS.PDB
^C:\GSL-1.16\CBLAS\CTBSV.C
C:\GSL-1.16\LIB\WIN32\RELEASE\CBLAS.PDB
^C:\GSL-1.16\CBLAS\CTPMV.C
C:\GSL-1.16\LIB\WIN32\RELEASE\CBLAS.PDB
^C:\GSL-1.16\CBLAS\CTPSV.C
C:\GSL-1.16\LIB\WIN32\RELEASE\CBLAS.PDB
^C:\GSL-1.16\CBLAS\CTRMM.C
C:\GSL-1.16\LIB\WIN32\RELEASE\CBLAS.PDB
^C:\GSL-1.16\CBLAS\CTRMV.C
C:\GSL-1.16\LIB\WIN32\RELEASE\CBLAS.PDB
^C:\GSL-1.16\CBLAS\CTRSM.C
C:\GSL-1.16\LIB\WIN32\RELEASE\CBLAS.PDB
^C:\GSL-1.16\CBLAS\CTRSV.C
C:\GSL-1.16\LIB\WIN32\RELEASE\CBLAS.PDB
^C:\GSL-1.16\CBLAS\DASUM.C
C:\GSL-1.16\LIB\WIN32\RELEASE\CBLAS.PDB
^C:\GSL-1.16\CBLAS\DAXPY.C
C:\GSL-1.16\LIB\WIN32\RELEASE\CBLAS.PDB
^C:\GSL-1.16\CBLAS\DCOPY.C
C:\GSL-1.16\LIB\WIN32\RELEASE\CBLAS.PDB
^C:\GSL-1.16\CBLAS\DDOT.C
C:\GSL-1.16\LIB\WIN32\RELEASE\CBLAS.PDB
^C:\GSL-1.16\CBLAS\DGBMV.C
C:\GSL-1.16\LIB\WIN32\RELEASE\CBLAS.PDB
^C:\GSL-1.16\CBLAS\DGEMM.C
C:\GSL-1.16\LIB\WIN32\RELEASE\CBLAS.PDB
^C:\GSL-1.16\CBLAS\DGEMV.C
C:\GSL-1.16\LIB\WIN32\RELEASE\CBLAS.PDB
^C:\GSL-1.16\CBLAS\DGER.C
C:\GSL-1.16\LIB\WIN32\RELEASE\CBLAS.PDB
^C:\GSL-1.16\CBLAS\DNRM2.C
C:\GSL-1.16\LIB\WIN32\RELEASE\CBLAS.PDB
^C:\GSL-1.16\CBLAS\DROT.C
C:\GSL-1.16\LIB\WIN32\RELEASE\CBLAS.PDB
^C:\GSL-1.16\CBLAS\DROTG.C
C:\GSL-1.16\LIB\WIN32\RELEASE\CBLAS.PDB
^C:\GSL-1.16\CBLAS\DROTM.C
C:\GSL-1.16\LIB\WIN32\RELEASE\CBLAS.PDB
^C:\GSL-1.16\CBLAS\DROTMG.C
C:\GSL-1.16\LIB\WIN32\RELEASE\CBLAS.PDB
^C:\GSL-1.16\CBLAS\DSBMV.C
C:\GSL-1.16\LIB\WIN32\RELEASE\CBLAS.PDB
^C:\GSL-1.16\CBLAS\DSCAL.C
C:\GSL-1.16\LIB\WIN32\RELEASE\CBLAS.PDB
^C:\GSL-1.16\CBLAS\DSDOT.C
C:\GSL-1.16\LIB\WIN32\RELEASE\CBLAS.PDB
^C:\GSL-1.16\CBLAS\DSPMV.C
C:\GSL-1.16\LIB\WIN32\RELEASE\CBLAS.PDB
^C:\GSL-1.16\CBLAS\DSPR.C
C:\GSL-1.16\LIB\WIN32\RELEASE\CBLAS.PDB
^C:\GSL-1.16\CBLAS\DSPR2.C
C:\GSL-1.16\LIB\WIN32\RELEASE\CBLAS.PDB
^C:\GSL-1.16\CBLAS\DSWAP.C
C:\GSL-1.16\LIB\WIN32\RELEASE\CBLAS.PDB
^C:\GSL-1.16\CBLAS\DSYMM.C
C:\GSL-1.16\LIB\WIN32\RELEASE\CBLAS.PDB
^C:\GSL-1.16\CBLAS\DSYMV.C
C:\GSL-1.16\LIB\WIN32\RELEASE\CBLAS.PDB
^C:\GSL-1.16\CBLAS\DSYR.C
C:\GSL-1.16\LIB\WIN32\RELEASE\CBLAS.PDB
^C:\GSL-1.16\CBLAS\DSYR2.C
C:\GSL-1.16\LIB\WIN32\RELEASE\CBLAS.PDB
^C:\GSL-1.16\CBLAS\DSYR2K.C
C:\GSL-1.16\LIB\WIN32\RELEASE\CBLAS.PDB
^C:\GSL-1.16\CBLAS\DSYRK.C
C:\GSL-1.16\LIB\WIN32\RELEASE\CBLAS.PDB
^C:\GSL-1.16\CBLAS\DTBMV.C
C:\GSL-1.16\LIB\WIN32\RELEASE\CBLAS.PDB
^C:\GSL-1.16\CBLAS\DTBSV.C
C:\GSL-1.16\LIB\WIN32\RELEASE\CBLAS.PDB
^C:\GSL-1.16\CBLAS\DTPMV.C
C:\GSL-1.16\LIB\WIN32\RELEASE\CBLAS.PDB
^C:\GSL-1.16\CBLAS\DTPSV.C
C:\GSL-1.16\LIB\WIN32\RELEASE\CBLAS.PDB
^C:\GSL-1.16\CBLAS\DTRMM.C
C:\GSL-1.16\LIB\WIN32\RELEASE\CBLAS.PDB
^C:\GSL-1.16\CBLAS\DTRMV.C
C:\GSL-1.16\LIB\WIN32\RELEASE\CBLAS.PDB
^C:\GSL-1.16\CBLAS\DTRSM.C
C:\GSL-1.16\LIB\WIN32\RELEASE\CBLAS.PDB
^C:\GSL-1.16\CBLAS\DTRSV.C
C:\GSL-1.16\LIB\WIN32\RELEASE\CBLAS.PDB
^C:\GSL-1.16\CBLAS\DZASUM.C
C:\GSL-1.16\LIB\WIN32\RELEASE\CBLAS.PDB
^C:\GSL-1.16\CBLAS\DZNRM2.C
C:\GSL-1.16\LIB\WIN32\RELEASE\CBLAS.PDB
^C:\GSL-1.16\CBLAS\ICAMAX.C
C:\GSL-1.16\LIB\WIN32\RELEASE\CBLAS.PDB
^C:\GSL-1.16\CBLAS\IDAMAX.C
C:\GSL-1.16\LIB\WIN32\RELEASE\CBLAS.PDB
^C:\GSL-1.16\CBLAS\ISAMAX.C
C:\GSL-1.16\LIB\WIN32\RELEASE\CBLAS.PDB
^C:\GSL-1.16\CBLAS\IZAMAX.C
C:\GSL-1.16\LIB\WIN32\RELEASE\CBLAS.PDB
^C:\GSL-1.16\CBLAS\SASUM.C
C:\GSL-1.16\LIB\WIN32\RELEASE\CBLAS.PDB
^C:\GSL-1.16\CBLAS\SAXPY.C
C:\GSL-1.16\LIB\WIN32\RELEASE\CBLAS.PDB
^C:\GSL-1.16\CBLAS\SCASUM.C
C:\GSL-1.16\LIB\WIN32\RELEASE\CBLAS.PDB
^C:\GSL-1.16\CBLAS\SCNRM2.C
C:\GSL-1.16\LIB\WIN32\RELEASE\CBLAS.PDB
^C:\GSL-1.16\CBLAS\SCOPY.C
C:\GSL-1.16\LIB\WIN32\RELEASE\CBLAS.PDB
^C:\GSL-1.16\CBLAS\SDOT.C
C:\GSL-1.16\LIB\WIN32\RELEASE\CBLAS.PDB
^C:\GSL-1.16\CBLAS\SDSDOT.C
C:\GSL-1.16\LIB\WIN32\RELEASE\CBLAS.PDB
^C:\GSL-1.16\CBLAS\SGBMV.C
C:\GSL-1.16\LIB\WIN32\RELEASE\CBLAS.PDB
^C:\GSL-1.16\CBLAS\SGEMM.C
C:\GSL-1.16\LIB\WIN32\RELEASE\CBLAS.PDB
^C:\GSL-1.16\CBLAS\SGEMV.C
C:\GSL-1.16\LIB\WIN32\RELEASE\CBLAS.PDB
^C:\GSL-1.16\CBLAS\SGER.C
C:\GSL-1.16\LIB\WIN32\RELEASE\CBLAS.PDB
^C:\GSL-1.16\CBLAS\SNRM2.C
C:\GSL-1.16\LIB\WIN32\RELEASE\CBLAS.PDB
^C:\GSL-1.16\CBLAS\SROT.C
C:\GSL-1.16\LIB\WIN32\RELEASE\CBLAS.PDB
^C:\GSL-1.16\CBLAS\SROTG.C
C:\GSL-1.16\LIB\WIN32\RELEASE\CBLAS.PDB
^C:\GSL-1.16\CBLAS\SROTM.C
C:\GSL-1.16\LIB\WIN32\RELEASE\CBLAS.PDB
^C:\GSL-1.16\CBLAS\SROTMG.C
C:\GSL-1.16\LIB\WIN32\RELEASE\CBLAS.PDB
^C:\GSL-1.16\CBLAS\SSBMV.C
C:\GSL-1.16\LIB\WIN32\RELEASE\CBLAS.PDB
^C:\GSL-1.16\CBLAS\SSCAL.C
C:\GSL-1.16\LIB\WIN32\RELEASE\CBLAS.PDB
^C:\GSL-1.16\CBLAS\SSPMV.C
C:\GSL-1.16\LIB\WIN32\RELEASE\CBLAS.PDB
^C:\GSL-1.16\CBLAS\SSPR.C
C:\GSL-1.16\LIB\WIN32\RELEASE\CBLAS.PDB
^C:\GSL-1.16\CBLAS\SSPR2.C
C:\GSL-1.16\LIB\WIN32\RELEASE\CBLAS.PDB
^C:\GSL-1.16\CBLAS\SSWAP.C
C:\GSL-1.16\LIB\WIN32\RELEASE\CBLAS.PDB
^C:\GSL-1.16\CBLAS\SSYMM.C
C:\GSL-1.16\LIB\WIN32\RELEASE\CBLAS.PDB
^C:\GSL-1.16\CBLAS\SSYMV.C
C:\GSL-1.16\LIB\WIN32\RELEASE\CBLAS.PDB
^C:\GSL-1.16\CBLAS\SSYR.C
C:\GSL-1.16\LIB\WIN32\RELEASE\CBLAS.PDB
^C:\GSL-1.16\CBLAS\SSYR2.C
C:\GSL-1.16\LIB\WIN32\RELEASE\CBLAS.PDB
^C:\GSL-1.16\CBLAS\SSYR2K.C
C:\GSL-1.16\LIB\WIN32\RELEASE\CBLAS.PDB
^C:\GSL-1.16\CBLAS\SSYRK.C
C:\GSL-1.16\LIB\WIN32\RELEASE\CBLAS.PDB
^C:\GSL-1.16\CBLAS\STBMV.C
C:\GSL-1.16\LIB\WIN32\RELEASE\CBLAS.PDB
^C:\GSL-1.16\CBLAS\STBSV.C
C:\GSL-1.16\LIB\WIN32\RELEASE\CBLAS.PDB
^C:\GSL-1.16\CBLAS\STPMV.C
C:\GSL-1.16\LIB\WIN32\RELEASE\CBLAS.PDB
^C:\GSL-1.16\CBLAS\STPSV.C
C:\GSL-1.16\LIB\WIN32\RELEASE\CBLAS.PDB
^C:\GSL-1.16\CBLAS\STRMM.C
C:\GSL-1.16\LIB\WIN32\RELEASE\CBLAS.PDB
^C:\GSL-1.16\CBLAS\STRMV.C
C:\GSL-1.16\LIB\WIN32\RELEASE\CBLAS.PDB
^C:\GSL-1.16\CBLAS\STRSM.C
C:\GSL-1.16\LIB\WIN32\RELEASE\CBLAS.PDB
^C:\GSL-1.16\CBLAS\STRSV.C
C:\GSL-1.16\LIB\WIN32\RELEASE\CBLAS.PDB
^C:\GSL-1.16\CBLAS\XERBLA.C
C:\GSL-1.16\LIB\WIN32\RELEASE\CBLAS.PDB
^C:\GSL-1.16\CBLAS\ZAXPY.C
C:\GSL-1.16\LIB\WIN32\RELEASE\CBLAS.PDB
^C:\GSL-1.16\CBLAS\ZCOPY.C
C:\GSL-1.16\LIB\WIN32\RELEASE\CBLAS.PDB
^C:\GSL-1.16\CBLAS\ZDOTC_SUB.C
C:\GSL-1.16\LIB\WIN32\RELEASE\CBLAS.PDB
^C:\GSL-1.16\CBLAS\ZDOTU_SUB.C
C:\GSL-1.16\LIB\WIN32\RELEASE\CBLAS.PDB
^C:\GSL-1.16\CBLAS\ZDSCAL.C
C:\GSL-1.16\LIB\WIN32\RELEASE\CBLAS.PDB
^C:\GSL-1.16\CBLAS\ZGBMV.C
C:\GSL-1.16\LIB\WIN32\RELEASE\CBLAS.PDB
^C:\GSL-1.16\CBLAS\ZGEMM.C
C:\GSL-1.16\LIB\WIN32\RELEASE\CBLAS.PDB
^C:\GSL-1.16\CBLAS\ZGEMV.C
C:\GSL-1.16\LIB\WIN32\RELEASE\CBLAS.PDB
^C:\GSL-1.16\CBLAS\ZGERC.C
C:\GSL-1.16\LIB\WIN32\RELEASE\CBLAS.PDB
^C:\GSL-1.16\CBLAS\ZGERU.C
C:\GSL-1.16\LIB\WIN32\RELEASE\CBLAS.PDB
^C:\GSL-1.16\CBLAS\ZHBMV.C
C:\GSL-1.16\LIB\WIN32\RELEASE\CBLAS.PDB
^C:\GSL-1.16\CBLAS\ZHEMM.C
C:\GSL-1.16\LIB\WIN32\RELEASE\CBLAS.PDB
^C:\GSL-1.16\CBLAS\ZHEMV.C
C:\GSL-1.16\LIB\WIN32\RELEASE\CBLAS.PDB
^C:\GSL-1.16\CBLAS\ZHER.C
C:\GSL-1.16\LIB\WIN32\RELEASE\CBLAS.PDB
^C:\GSL-1.16\CBLAS\ZHER2.C
C:\GSL-1.16\LIB\WIN32\RELEASE\CBLAS.PDB
^C:\GSL-1.16\CBLAS\ZHER2K.C
C:\GSL-1.16\LIB\WIN32\RELEASE\CBLAS.PDB
^C:\GSL-1.16\CBLAS\ZHERK.C
C:\GSL-1.16\LIB\WIN32\RELEASE\CBLAS.PDB
^C:\GSL-1.16\CBLAS\ZHPMV.C
C:\GSL-1.16\LIB\WIN32\RELEASE\CBLAS.PDB
^C:\GSL-1.16\CBLAS\ZHPR.C
C:\GSL-1.16\LIB\WIN32\RELEASE\CBLAS.PDB
^C:\GSL-1.16\CBLAS\ZHPR2.C
C:\GSL-1.16\LIB\WIN32\RELEASE\CBLAS.PDB
^C:\GSL-1.16\CBLAS\ZSCAL.C
C:\GSL-1.16\LIB\WIN32\RELEASE\CBLAS.PDB
^C:\GSL-1.16\CBLAS\ZSWAP.C
C:\GSL-1.16\LIB\WIN32\RELEASE\CBLAS.PDB
^C:\GSL-1.16\CBLAS\ZSYMM.C
C:\GSL-1.16\LIB\WIN32\RELEASE\CBLAS.PDB
^C:\GSL-1.16\CBLAS\ZSYR2K.C
C:\GSL-1.16\LIB\WIN32\RELEASE\CBLAS.PDB
^C:\GSL-1.16\CBLAS\ZSYRK.C
C:\GSL-1.16\LIB\WIN32\RELEASE\CBLAS.PDB
^C:\GSL-1.16\CBLAS\ZTBMV.C
C:\GSL-1.16\LIB\WIN32\RELEASE\CBLAS.PDB
^C:\GSL-1.16\CBLAS\ZTBSV.C
C:\GSL-1.16\LIB\WIN32\RELEASE\CBLAS.PDB
^C:\GSL-1.16\CBLAS\ZTPMV.C
C:\GSL-1.16\LIB\WIN32\RELEASE\CBLAS.PDB
^C:\GSL-1.16\CBLAS\ZTPSV.C
C:\GSL-1.16\LIB\WIN32\RELEASE\CBLAS.PDB
^C:\GSL-1.16\CBLAS\ZTRMM.C
C:\GSL-1.16\LIB\WIN32\RELEASE\CBLAS.PDB
^C:\GSL-1.16\CBLAS\ZTRMV.C
C:\GSL-1.16\LIB\WIN32\RELEASE\CBLAS.PDB
^C:\GSL-1.16\CBLAS\ZTRSM.C
C:\GSL-1.16\LIB\WIN32\RELEASE\CBLAS.PDB
^C:\GSL-1.16\CBLAS\ZTRSV.C
C:\GSL-1.16\LIB\WIN32\RELEASE\CBLAS.PDB
^E:\STOLERIU\C\GSL-2.1\CBLAS\CAXPY.C|E:\STOLERIU\C\GSL-2.1\CBLAS\CCOPY.C|E:\STOLERIU\C\GSL-2.1\CBLAS\CDOTC_SUB.C|E:\STOLERIU\C\GSL-2.1\CBLAS\CDOTU_SUB.C|E:\STOLERIU\C\GSL-2.1\CBLAS\CGBMV.C|E:\STOLERIU\C\GSL-2.1\CBLAS\CGEMM.C|E:\STOLERIU\C\GSL-2.1\CBLAS\CGEMV.C|E:\STOLERIU\C\GSL-2.1\CBLAS\CGERC.C|E:\STOLERIU\C\GSL-2.1\CBLAS\CGERU.C|E:\STOLERIU\C\GSL-2.1\CBLAS\CHBMV.C|E:\STOLERIU\C\GSL-2.1\CBLAS\CHEMM.C|E:\STOLERIU\C\GSL-2.1\CBLAS\CHEMV.C|E:\STOLERIU\C\GSL-2.1\CBLAS\CHER.C|E:\STOLERIU\C\GSL-2.1\CBLAS\CHER2.C|E:\STOLERIU\C\GSL-2.1\CBLAS\CHER2K.C|E:\STOLERIU\C\GSL-2.1\CBLAS\CHERK.C|E:\STOLERIU\C\GSL-2.1\CBLAS\CHPMV.C|E:\STOLERIU\C\GSL-2.1\CBLAS\CHPR.C|E:\STOLERIU\C\GSL-2.1\CBLAS\CHPR2.C|E:\STOLERIU\C\GSL-2.1\CBLAS\CSCAL.C|E:\STOLERIU\C\GSL-2.1\CBLAS\CSSCAL.C|E:\STOLERIU\C\GSL-2.1\CBLAS\CSWAP.C|E:\STOLERIU\C\GSL-2.1\CBLAS\CSYMM.C|E:\STOLERIU\C\GSL-2.1\CBLAS\CSYR2K.C|E:\STOLERIU\C\GSL-2.1\CBLAS\CSYRK.C|E:\STOLERIU\C\GSL-2.1\CBLAS\CTBMV.C|E:\STOLERIU\C\GSL-2.1\CBLAS\CTBSV.C|E:\STOLERIU\C\GSL-2.1\CBLAS\CTPMV.C|E:\STOLERIU\C\GSL-2.1\CBLAS\CTPSV.C|E:\STOLERIU\C\GSL-2.1\CBLAS\CTRMM.C|E:\STOLERIU\C\GSL-2.1\CBLAS\CTRMV.C|E:\STOLERIU\C\GSL-2.1\CBLAS\CTRSM.C|E:\STOLERIU\C\GSL-2.1\CBLAS\CTRSV.C|E:\STOLERIU\C\GSL-2.1\CBLAS\DASUM.C|E:\STOLERIU\C\GSL-2.1\CBLAS\DAXPY.C|E:\STOLERIU\C\GSL-2.1\CBLAS\DCOPY.C|E:\STOLERIU\C\GSL-2.1\CBLAS\DDOT.C|E:\STOLERIU\C\GSL-2.1\CBLAS\DGBMV.C|E:\STOLERIU\C\GSL-2.1\CBLAS\DGEMM.C|E:\STOLERIU\C\GSL-2.1\CBLAS\DGEMV.C|E:\STOLERIU\C\GSL-2.1\CBLAS\DGER.C|E:\STOLERIU\C\GSL-2.1\CBLAS\DNRM2.C|E:\STOLERIU\C\GSL-2.1\CBLAS\DROT.C|E:\STOLERIU\C\GSL-2.1\CBLAS\DROTG.C|E:\STOLERIU\C\GSL-2.1\CBLAS\DROTM.C|E:\STOLERIU\C\GSL-2.1\CBLAS\DROTMG.C|E:\STOLERIU\C\GSL-2.1\CBLAS\DSBMV.C|E:\STOLERIU\C\GSL-2.1\CBLAS\DSCAL.C|E:\STOLERIU\C\GSL-2.1\CBLAS\DSDOT.C|E:\STOLERIU\C\GSL-2.1\CBLAS\DSPMV.C|E:\STOLERIU\C\GSL-2.1\CBLAS\DSPR.C|E:\STOLERIU\C\GSL-2.1\CBLAS\DSPR2.C|E:\STOLERIU\C\GSL-2.1\CBLAS\DSWAP.C|E:\STOLERIU\C\GSL-2.1\CBLAS\DSYMM.C|E:\STOLERIU\C\GSL-2.1\CBLAS\DSYMV.C|E:\STOLERIU\C\GSL-2.1\CBLAS\DSYR.C|E:\STOLERIU\C\GSL-2.1\CBLAS\DSYR2.C|E:\STOLERIU\C\GSL-2.1\CBLAS\DSYR2K.C|E:\STOLERIU\C\GSL-2.1\CBLAS\DSYRK.C|E:\STOLERIU\C\GSL-2.1\CBLAS\DTBMV.C|E:\STOLERIU\C\GSL-2.1\CBLAS\DTBSV.C|E:\STOLERIU\C\GSL-2.1\CBLAS\DTPMV.C|E:\STOLERIU\C\GSL-2.1\CBLAS\DTPSV.C|E:\STOLERIU\C\GSL-2.1\CBLAS\DTRMM.C|E:\STOLERIU\C\GSL-2.1\CBLAS\DTRMV.C|E:\STOLERIU\C\GSL-2.1\CBLAS\DTRSM.C|E:\STOLERIU\C\GSL-2.1\CBLAS\DTRSV.C|E:\STOLERIU\C\GSL-2.1\CBLAS\DZASUM.C|E:\STOLERIU\C\GSL-2.1\CBLAS\DZNRM2.C|E:\STOLERIU\C\GSL-2.1\CBLAS\ICAMAX.C|E:\STOLERIU\C\GSL-2.1\CBLAS\IDAMAX.C|E:\STOLERIU\C\GSL-2.1\CBLAS\ISAMAX.C|E:\STOLERIU\C\GSL-2.1\CBLAS\IZAMAX.C|E:\STOLERIU\C\GSL-2.1\CBLAS\SASUM.C|E:\STOLERIU\C\GSL-2.1\CBLAS\SAXPY.C|E:\STOLERIU\C\GSL-2.1\CBLAS\SCASUM.C|E:\STOLERIU\C\GSL-2.1\CBLAS\SCNRM2.C|E:\STOLERIU\C\GSL-2.1\CBLAS\SCOPY.C|E:\STOLERIU\C\GSL-2.1\CBLAS\SDOT.C|E:\STOLERIU\C\GSL-2.1\CBLAS\SDSDOT.C|E:\STOLERIU\C\GSL-2.1\CBLAS\SGBMV.C|E:\STOLERIU\C\GSL-2.1\CBLAS\SGEMM.C|E:\STOLERIU\C\GSL-2.1\CBLAS\SGEMV.C|E:\STOLERIU\C\GSL-2.1\CBLAS\SGER.C|E:\STOLERIU\C\GSL-2.1\CBLAS\SNRM2.C|E:\STOLERIU\C\GSL-2.1\CBLAS\SROT.C|E:\STOLERIU\C\GSL-2.1\CBLAS\SROTG.C|E:\STOLERIU\C\GSL-2.1\CBLAS\SROTM.C|E:\STOLERIU\C\GSL-2.1\CBLAS\SROTMG.C|E:\STOLERIU\C\GSL-2.1\CBLAS\SSBMV.C|E:\STOLERIU\C\GSL-2.1\CBLAS\SSCAL.C|E:\STOLERIU\C\GSL-2.1\CBLAS\SSPMV.C|E:\STOLERIU\C\GSL-2.1\CBLAS\SSPR.C|E:\STOLERIU\C\GSL-2.1\CBLAS\SSPR2.C|E:\STOLERIU\C\GSL-2.1\CBLAS\SSWAP.C|E:\STOLERIU\C\GSL-2.1\CBLAS\SSYMM.C|E:\STOLERIU\C\GSL-2.1\CBLAS\SSYMV.C|E:\STOLERIU\C\GSL-2.1\CBLAS\SSYR.C|E:\STOLERIU\C\GSL-2.1\CBLAS\SSYR2.C|E:\STOLERIU\C\GSL-2.1\CBLAS\SSYR2K.C|E:\STOLERIU\C\GSL-2.1\CBLAS\SSYRK.C|E:\STOLERIU\C\GSL-2.1\CBLAS\STBMV.C|E:\STOLERIU\C\GSL-2.1\CBLAS\STBSV.C|E:\STOLERIU\C\GSL-2.1\CBLAS\STPMV.C|E:\STOLERIU\C\GSL-2.1\CBLAS\STPSV.C|E:\STOLERIU\C\GSL-2.1\CBLAS\STRMM.C|E:\STOLERIU\C\GSL-2.1\CBLAS\STRMV.C|E:\STOLERIU\C\GSL-2.1\CBLAS\STRSM.C|E:\STOLERIU\C\GSL-2.1\CBLAS\STRSV.C|E:\STOLERIU\C\GSL-2.1\CBLAS\XERBLA.C|E:\STOLERIU\C\GSL-2.1\CBLAS\ZAXPY.C|E:\STOLERIU\C\GSL-2.1\CBLAS\ZCOPY.C|E:\STOLERIU\C\GSL-2.1\CBLAS\ZDOTC_SUB.C|E:\STOLERIU\C\GSL-2.1\CBLAS\ZDOTU_SUB.C|E:\STOLERIU\C\GSL-2.1\CBLAS\ZDSCAL.C|E:\STOLERIU\C\GSL-2.1\CBLAS\ZGBMV.C|E:\STOLERIU\C\GSL-2.1\CBLAS\ZGEMM.C|E:\STOLERIU\C\GSL-2.1\CBLAS\ZGEMV.C|E:\STOLERIU\C\GSL-2.1\CBLAS\ZGERC.C|E:\STOLERIU\C\GSL-2.1\CBLAS\ZGERU.C|E:\STOLERIU\C\GSL-2.1\CBLAS\ZHBMV.C|E:\STOLERIU\C\GSL-2.1\CBLAS\ZHEMM.C|E:\STOLERIU\C\GSL-2.1\CBLAS\ZHEMV.C|E:\STOLERIU\C\GSL-2.1\CBLAS\ZHER.C|E:\STOLERIU\C\GSL-2.1\CBLAS\ZHER2.C|E:\STOLERIU\C\GSL-2.1\CBLAS\ZHER2K.C|E:\STOLERIU\C\GSL-2.1\CBLAS\ZHERK.C|E:\STOLERIU\C\GSL-2.1\CBLAS\ZHPMV.C|E:\STOLERIU\C\GSL-2.1\CBLAS\ZHPR.C|E:\STOLERIU\C\GSL-2.1\CBLAS\ZHPR2.C|E:\STOLERIU\C\GSL-2.1\CBLAS\ZSCAL.C|E:\STOLERIU\C\GSL-2.1\CBLAS\ZSWAP.C|E:\STOLERIU\C\GSL-2.1\CBLAS\ZSYMM.C|E:\STOLERIU\C\GSL-2.1\CBLAS\ZSYR2K.C|E:\STOLERIU\C\GSL-2.1\CBLAS\ZSYRK.C|E:\STOLERIU\C\GSL-2.1\CBLAS\ZTBMV.C|E:\STOLERIU\C\GSL-2.1\CBLAS\ZTBSV.C|E:\STOLERIU\C\GSL-2.1\CBLAS\ZTPMV.C|E:\STOLERIU\C\GSL-2.1\CBLAS\ZTPSV.C|E:\STOLERIU\C\GSL-2.1\CBLAS\ZTRMM.C|E:\STOLERIU\C\GSL-2.1\CBLAS\ZTRMV.C|E:\STOLERIU\C\GSL-2.1\CBLAS\ZTRSM.C|E:\STOLERIU\C\GSL-2.1\CBLAS\ZTRSV.C
E:\STOLERIU\C\GSL-2.1\LIB\WIN32\RELEASE\CBLAS.PDB
E:\STOLERIU\C\GSL-2.1\BUILD.VC11\CBLASLIB\WIN32\RELEASE\CSCAL.OBJ
E:\STOLERIU\C\GSL-2.1\BUILD.VC11\CBLASLIB\WIN32\RELEASE\CHPR2.OBJ
E:\STOLERIU\C\GSL-2.1\BUILD.VC11\CBLASLIB\WIN32\RELEASE\CHPR.OBJ
E:\STOLERIU\C\GSL-2.1\BUILD.VC11\CBLASLIB\WIN32\RELEASE\CHPMV.OBJ
E:\STOLERIU\C\GSL-2.1\BUILD.VC11\CBLASLIB\WIN32\RELEASE\CHERK.OBJ
E:\STOLERIU\C\GSL-2.1\BUILD.VC11\CBLASLIB\WIN32\RELEASE\CHER2K.OBJ
E:\STOLERIU\C\GSL-2.1\BUILD.VC11\CBLASLIB\WIN32\RELEASE\CHER2.OBJ
E:\STOLERIU\C\GSL-2.1\BUILD.VC11\CBLASLIB\WIN32\RELEASE\CHER.OBJ
E:\STOLERIU\C\GSL-2.1\BUILD.VC11\CBLASLIB\WIN32\RELEASE\CHEMV.OBJ
E:\STOLERIU\C\GSL-2.1\BUILD.VC11\CBLASLIB\WIN32\RELEASE\CHEMM.OBJ
E:\STOLERIU\C\GSL-2.1\BUILD.VC11\CBLASLIB\WIN32\RELEASE\CHBMV.OBJ
E:\STOLERIU\C\GSL-2.1\BUILD.VC11\CBLASLIB\WIN32\RELEASE\CGERU.OBJ
E:\STOLERIU\C\GSL-2.1\BUILD.VC11\CBLASLIB\WIN32\RELEASE\CGERC.OBJ
E:\STOLERIU\C\GSL-2.1\BUILD.VC11\CBLASLIB\WIN32\RELEASE\CGEMV.OBJ
E:\STOLERIU\C\GSL-2.1\BUILD.VC11\CBLASLIB\WIN32\RELEASE\CGEMM.OBJ
E:\STOLERIU\C\GSL-2.1\BUILD.VC11\CBLASLIB\WIN32\RELEASE\CGBMV.OBJ
E:\STOLERIU\C\GSL-2.1\BUILD.VC11\CBLASLIB\WIN32\RELEASE\CDOTU_SUB.OBJ
E:\STOLERIU\C\GSL-2.1\BUILD.VC11\CBLASLIB\WIN32\RELEASE\CDOTC_SUB.OBJ
E:\STOLERIU\C\GSL-2.1\BUILD.VC11\CBLASLIB\WIN32\RELEASE\CCOPY.OBJ
E:\STOLERIU\C\GSL-2.1\BUILD.VC11\CBLASLIB\WIN32\RELEASE\CAXPY.OBJ
E:\STOLERIU\C\GSL-2.1\BUILD.VC11\CBLASLIB\WIN32\RELEASE\DGEMV.OBJ
E:\STOLERIU\C\GSL-2.1\BUILD.VC11\CBLASLIB\WIN32\RELEASE\DGEMM.OBJ
E:\STOLERIU\C\GSL-2.1\BUILD.VC11\CBLASLIB\WIN32\RELEASE\DGBMV.OBJ
E:\STOLERIU\C\GSL-2.1\BUILD.VC11\CBLASLIB\WIN32\RELEASE\DDOT.OBJ
E:\STOLERIU\C\GSL-2.1\BUILD.VC11\CBLASLIB\WIN32\RELEASE\DCOPY.OBJ
E:\STOLERIU\C\GSL-2.1\BUILD.VC11\CBLASLIB\WIN32\RELEASE\DAXPY.OBJ
E:\STOLERIU\C\GSL-2.1\BUILD.VC11\CBLASLIB\WIN32\RELEASE\DASUM.OBJ
E:\STOLERIU\C\GSL-2.1\BUILD.VC11\CBLASLIB\WIN32\RELEASE\CTRSV.OBJ
E:\STOLERIU\C\GSL-2.1\BUILD.VC11\CBLASLIB\WIN32\RELEASE\CTRSM.OBJ
E:\STOLERIU\C\GSL-2.1\BUILD.VC11\CBLASLIB\WIN32\RELEASE\CTRMV.OBJ
E:\STOLERIU\C\GSL-2.1\BUILD.VC11\CBLASLIB\WIN32\RELEASE\CTRMM.OBJ
E:\STOLERIU\C\GSL-2.1\BUILD.VC11\CBLASLIB\WIN32\RELEASE\CTPSV.OBJ
E:\STOLERIU\C\GSL-2.1\BUILD.VC11\CBLASLIB\WIN32\RELEASE\CTPMV.OBJ
E:\STOLERIU\C\GSL-2.1\BUILD.VC11\CBLASLIB\WIN32\RELEASE\CTBSV.OBJ
E:\STOLERIU\C\GSL-2.1\BUILD.VC11\CBLASLIB\WIN32\RELEASE\CTBMV.OBJ
E:\STOLERIU\C\GSL-2.1\BUILD.VC11\CBLASLIB\WIN32\RELEASE\CSYRK.OBJ
E:\STOLERIU\C\GSL-2.1\BUILD.VC11\CBLASLIB\WIN32\RELEASE\CSYR2K.OBJ
E:\STOLERIU\C\GSL-2.1\BUILD.VC11\CBLASLIB\WIN32\RELEASE\CSYMM.OBJ
E:\STOLERIU\C\GSL-2.1\BUILD.VC11\CBLASLIB\WIN32\RELEASE\CSWAP.OBJ
E:\STOLERIU\C\GSL-2.1\BUILD.VC11\CBLASLIB\WIN32\RELEASE\CSSCAL.OBJ
E:\STOLERIU\C\GSL-2.1\BUILD.VC11\CBLASLIB\WIN32\RELEASE\DTBMV.OBJ
E:\STOLERIU\C\GSL-2.1\BUILD.VC11\CBLASLIB\WIN32\RELEASE\DSYRK.OBJ
E:\STOLERIU\C\GSL-2.1\BUILD.VC11\CBLASLIB\WIN32\RELEASE\DSYR2K.OBJ
E:\STOLERIU\C\GSL-2.1\BUILD.VC11\CBLASLIB\WIN32\RELEASE\DSYR2.OBJ
E:\STOLERIU\C\GSL-2.1\BUILD.VC11\CBLASLIB\WIN32\RELEASE\DSYR.OBJ
E:\STOLERIU\C\GSL-2.1\BUILD.VC11\CBLASLIB\WIN32\RELEASE\DSYMV.OBJ
E:\STOLERIU\C\GSL-2.1\BUILD.VC11\CBLASLIB\WIN32\RELEASE\DSYMM.OBJ
E:\STOLERIU\C\GSL-2.1\BUILD.VC11\CBLASLIB\WIN32\RELEASE\DSWAP.OBJ
E:\STOLERIU\C\GSL-2.1\BUILD.VC11\CBLASLIB\WIN32\RELEASE\DSPR2.OBJ
E:\STOLERIU\C\GSL-2.1\BUILD.VC11\CBLASLIB\WIN32\RELEASE\DSPR.OBJ
E:\STOLERIU\C\GSL-2.1\BUILD.VC11\CBLASLIB\WIN32\RELEASE\DSPMV.OBJ
E:\STOLERIU\C\GSL-2.1\BUILD.VC11\CBLASLIB\WIN32\RELEASE\DSDOT.OBJ
E:\STOLERIU\C\GSL-2.1\BUILD.VC11\CBLASLIB\WIN32\RELEASE\DSCAL.OBJ
E:\STOLERIU\C\GSL-2.1\BUILD.VC11\CBLASLIB\WIN32\RELEASE\DSBMV.OBJ
E:\STOLERIU\C\GSL-2.1\BUILD.VC11\CBLASLIB\WIN32\RELEASE\DROTMG.OBJ
E:\STOLERIU\C\GSL-2.1\BUILD.VC11\CBLASLIB\WIN32\RELEASE\DROTM.OBJ
E:\STOLERIU\C\GSL-2.1\BUILD.VC11\CBLASLIB\WIN32\RELEASE\DROTG.OBJ
E:\STOLERIU\C\GSL-2.1\BUILD.VC11\CBLASLIB\WIN32\RELEASE\DROT.OBJ
E:\STOLERIU\C\GSL-2.1\BUILD.VC11\CBLASLIB\WIN32\RELEASE\DNRM2.OBJ
E:\STOLERIU\C\GSL-2.1\BUILD.VC11\CBLASLIB\WIN32\RELEASE\DGER.OBJ
E:\STOLERIU\C\GSL-2.1\BUILD.VC11\CBLASLIB\WIN32\RELEASE\SDSDOT.OBJ
E:\STOLERIU\C\GSL-2.1\BUILD.VC11\CBLASLIB\WIN32\RELEASE\SDOT.OBJ
E:\STOLERIU\C\GSL-2.1\BUILD.VC11\CBLASLIB\WIN32\RELEASE\SCOPY.OBJ
E:\STOLERIU\C\GSL-2.1\BUILD.VC11\CBLASLIB\WIN32\RELEASE\SCNRM2.OBJ
E:\STOLERIU\C\GSL-2.1\BUILD.VC11\CBLASLIB\WIN32\RELEASE\SCASUM.OBJ
E:\STOLERIU\C\GSL-2.1\BUILD.VC11\CBLASLIB\WIN32\RELEASE\SAXPY.OBJ
E:\STOLERIU\C\GSL-2.1\BUILD.VC11\CBLASLIB\WIN32\RELEASE\SASUM.OBJ
E:\STOLERIU\C\GSL-2.1\BUILD.VC11\CBLASLIB\WIN32\RELEASE\IZAMAX.OBJ
E:\STOLERIU\C\GSL-2.1\BUILD.VC11\CBLASLIB\WIN32\RELEASE\ISAMAX.OBJ
E:\STOLERIU\C\GSL-2.1\BUILD.VC11\CBLASLIB\WIN32\RELEASE\IDAMAX.OBJ
E:\STOLERIU\C\GSL-2.1\BUILD.VC11\CBLASLIB\WIN32\RELEASE\ICAMAX.OBJ
E:\STOLERIU\C\GSL-2.1\BUILD.VC11\CBLASLIB\WIN32\RELEASE\DZNRM2.OBJ
E:\STOLERIU\C\GSL-2.1\BUILD.VC11\CBLASLIB\WIN32\RELEASE\DZASUM.OBJ
E:\STOLERIU\C\GSL-2.1\BUILD.VC11\CBLASLIB\WIN32\RELEASE\DTRSV.OBJ
E:\STOLERIU\C\GSL-2.1\BUILD.VC11\CBLASLIB\WIN32\RELEASE\DTRSM.OBJ
E:\STOLERIU\C\GSL-2.1\BUILD.VC11\CBLASLIB\WIN32\RELEASE\DTRMV.OBJ
E:\STOLERIU\C\GSL-2.1\BUILD.VC11\CBLASLIB\WIN32\RELEASE\DTRMM.OBJ
E:\STOLERIU\C\GSL-2.1\BUILD.VC11\CBLASLIB\WIN32\RELEASE\DTPSV.OBJ
E:\STOLERIU\C\GSL-2.1\BUILD.VC11\CBLASLIB\WIN32\RELEASE\DTPMV.OBJ
E:\STOLERIU\C\GSL-2.1\BUILD.VC11\CBLASLIB\WIN32\RELEASE\DTBSV.OBJ
E:\STOLERIU\C\GSL-2.1\BUILD.VC11\CBLASLIB\WIN32\RELEASE\SSYR2K.OBJ
E:\STOLERIU\C\GSL-2.1\BUILD.VC11\CBLASLIB\WIN32\RELEASE\SSYR2.OBJ
E:\STOLERIU\C\GSL-2.1\BUILD.VC11\CBLASLIB\WIN32\RELEASE\SSYR.OBJ
E:\STOLERIU\C\GSL-2.1\BUILD.VC11\CBLASLIB\WIN32\RELEASE\SSYMV.OBJ
E:\STOLERIU\C\GSL-2.1\BUILD.VC11\CBLASLIB\WIN32\RELEASE\SSYMM.OBJ
E:\STOLERIU\C\GSL-2.1\BUILD.VC11\CBLASLIB\WIN32\RELEASE\SSWAP.OBJ
E:\STOLERIU\C\GSL-2.1\BUILD.VC11\CBLASLIB\WIN32\RELEASE\SSPR2.OBJ
E:\STOLERIU\C\GSL-2.1\BUILD.VC11\CBLASLIB\WIN32\RELEASE\SSPR.OBJ
E:\STOLERIU\C\GSL-2.1\BUILD.VC11\CBLASLIB\WIN32\RELEASE\SSPMV.OBJ
E:\STOLERIU\C\GSL-2.1\BUILD.VC11\CBLASLIB\WIN32\RELEASE\SSCAL.OBJ
E:\STOLERIU\C\GSL-2.1\BUILD.VC11\CBLASLIB\WIN32\RELEASE\SSBMV.OBJ
E:\STOLERIU\C\GSL-2.1\BUILD.VC11\CBLASLIB\WIN32\RELEASE\SROTMG.OBJ
E:\STOLERIU\C\GSL-2.1\BUILD.VC11\CBLASLIB\WIN32\RELEASE\SROTM.OBJ
E:\STOLERIU\C\GSL-2.1\BUILD.VC11\CBLASLIB\WIN32\RELEASE\SROTG.OBJ
E:\STOLERIU\C\GSL-2.1\BUILD.VC11\CBLASLIB\WIN32\RELEASE\SROT.OBJ
E:\STOLERIU\C\GSL-2.1\BUILD.VC11\CBLASLIB\WIN32\RELEASE\SNRM2.OBJ
E:\STOLERIU\C\GSL-2.1\BUILD.VC11\CBLASLIB\WIN32\RELEASE\SGER.OBJ
E:\STOLERIU\C\GSL-2.1\BUILD.VC11\CBLASLIB\WIN32\RELEASE\SGEMV.OBJ
E:\STOLERIU\C\GSL-2.1\BUILD.VC11\CBLASLIB\WIN32\RELEASE\SGEMM.OBJ
E:\STOLERIU\C\GSL-2.1\BUILD.VC11\CBLASLIB\WIN32\RELEASE\SGBMV.OBJ
E:\STOLERIU\C\GSL-2.1\BUILD.VC11\CBLASLIB\WIN32\RELEASE\ZGERU.OBJ
E:\STOLERIU\C\GSL-2.1\BUILD.VC11\CBLASLIB\WIN32\RELEASE\ZGERC.OBJ
E:\STOLERIU\C\GSL-2.1\BUILD.VC11\CBLASLIB\WIN32\RELEASE\ZGEMV.OBJ
E:\STOLERIU\C\GSL-2.1\BUILD.VC11\CBLASLIB\WIN32\RELEASE\ZGEMM.OBJ
E:\STOLERIU\C\GSL-2.1\BUILD.VC11\CBLASLIB\WIN32\RELEASE\ZGBMV.OBJ
E:\STOLERIU\C\GSL-2.1\BUILD.VC11\CBLASLIB\WIN32\RELEASE\ZDSCAL.OBJ
E:\STOLERIU\C\GSL-2.1\BUILD.VC11\CBLASLIB\WIN32\RELEASE\ZDOTU_SUB.OBJ
E:\STOLERIU\C\GSL-2.1\BUILD.VC11\CBLASLIB\WIN32\RELEASE\ZDOTC_SUB.OBJ
E:\STOLERIU\C\GSL-2.1\BUILD.VC11\CBLASLIB\WIN32\RELEASE\ZCOPY.OBJ
E:\STOLERIU\C\GSL-2.1\BUILD.VC11\CBLASLIB\WIN32\RELEASE\ZAXPY.OBJ
E:\STOLERIU\C\GSL-2.1\BUILD.VC11\CBLASLIB\WIN32\RELEASE\XERBLA.OBJ
E:\STOLERIU\C\GSL-2.1\BUILD.VC11\CBLASLIB\WIN32\RELEASE\STRSV.OBJ
E:\STOLERIU\C\GSL-2.1\BUILD.VC11\CBLASLIB\WIN32\RELEASE\STRSM.OBJ
E:\STOLERIU\C\GSL-2.1\BUILD.VC11\CBLASLIB\WIN32\RELEASE\STRMV.OBJ
E:\STOLERIU\C\GSL-2.1\BUILD.VC11\CBLASLIB\WIN32\RELEASE\STRMM.OBJ
E:\STOLERIU\C\GSL-2.1\BUILD.VC11\CBLASLIB\WIN32\RELEASE\STPSV.OBJ
E:\STOLERIU\C\GSL-2.1\BUILD.VC11\CBLASLIB\WIN32\RELEASE\STPMV.OBJ
E:\STOLERIU\C\GSL-2.1\BUILD.VC11\CBLASLIB\WIN32\RELEASE\STBSV.OBJ
E:\STOLERIU\C\GSL-2.1\BUILD.VC11\CBLASLIB\WIN32\RELEASE\STBMV.OBJ
E:\STOLERIU\C\GSL-2.1\BUILD.VC11\CBLASLIB\WIN32\RELEASE\SSYRK.OBJ
E:\STOLERIU\C\GSL-2.1\BUILD.VC11\CBLASLIB\WIN32\RELEASE\ZTRMM.OBJ
E:\STOLERIU\C\GSL-2.1\BUILD.VC11\CBLASLIB\WIN32\RELEASE\ZTPSV.OBJ
E:\STOLERIU\C\GSL-2.1\BUILD.VC11\CBLASLIB\WIN32\RELEASE\ZTPMV.OBJ
E:\STOLERIU\C\GSL-2.1\BUILD.VC11\CBLASLIB\WIN32\RELEASE\ZTBSV.OBJ
E:\STOLERIU\C\GSL-2.1\BUILD.VC11\CBLASLIB\WIN32\RELEASE\ZTBMV.OBJ
E:\STOLERIU\C\GSL-2.1\BUILD.VC11\CBLASLIB\WIN32\RELEASE\ZSYRK.OBJ
E:\STOLERIU\C\GSL-2.1\BUILD.VC11\CBLASLIB\WIN32\RELEASE\ZSYR2K.OBJ
E:\STOLERIU\C\GSL-2.1\BUILD.VC11\CBLASLIB\WIN32\RELEASE\ZSYMM.OBJ
E:\STOLERIU\C\GSL-2.1\BUILD.VC11\CBLASLIB\WIN32\RELEASE\ZSWAP.OBJ
E:\STOLERIU\C\GSL-2.1\BUILD.VC11\CBLASLIB\WIN32\RELEASE\ZSCAL.OBJ
E:\STOLERIU\C\GSL-2.1\BUILD.VC11\CBLASLIB\WIN32\RELEASE\ZHPR2.OBJ
E:\STOLERIU\C\GSL-2.1\BUILD.VC11\CBLASLIB\WIN32\RELEASE\ZHPR.OBJ
E:\STOLERIU\C\GSL-2.1\BUILD.VC11\CBLASLIB\WIN32\RELEASE\ZHPMV.OBJ
E:\STOLERIU\C\GSL-2.1\BUILD.VC11\CBLASLIB\WIN32\RELEASE\ZHERK.OBJ
E:\STOLERIU\C\GSL-2.1\BUILD.VC11\CBLASLIB\WIN32\RELEASE\ZHER2K.OBJ
E:\STOLERIU\C\GSL-2.1\BUILD.VC11\CBLASLIB\WIN32\RELEASE\ZHER2.OBJ
E:\STOLERIU\C\GSL-2.1\BUILD.VC11\CBLASLIB\WIN32\RELEASE\ZHER.OBJ
E:\STOLERIU\C\GSL-2.1\BUILD.VC11\CBLASLIB\WIN32\RELEASE\ZHEMV.OBJ
E:\STOLERIU\C\GSL-2.1\BUILD.VC11\CBLASLIB\WIN32\RELEASE\ZHEMM.OBJ
E:\STOLERIU\C\GSL-2.1\BUILD.VC11\CBLASLIB\WIN32\RELEASE\ZHBMV.OBJ
E:\STOLERIU\C\GSL-2.1\BUILD.VC11\CBLASLIB\WIN32\RELEASE\ZTRSV.OBJ
E:\STOLERIU\C\GSL-2.1\BUILD.VC11\CBLASLIB\WIN32\RELEASE\ZTRSM.OBJ
E:\STOLERIU\C\GSL-2.1\BUILD.VC11\CBLASLIB\WIN32\RELEASE\ZTRMV.OBJ
^E:\STOLERIU\C\GSL-2.1\CBLAS\CAXPY.C
E:\STOLERIU\C\GSL-2.1\LIB\WIN32\RELEASE\CBLAS.PDB
^E:\STOLERIU\C\GSL-2.1\CBLAS\CCOPY.C
E:\STOLERIU\C\GSL-2.1\LIB\WIN32\RELEASE\CBLAS.PDB
^E:\STOLERIU\C\GSL-2.1\CBLAS\CDOTC_SUB.C
E:\STOLERIU\C\GSL-2.1\LIB\WIN32\RELEASE\CBLAS.PDB
^E:\STOLERIU\C\GSL-2.1\CBLAS\CDOTU_SUB.C
E:\STOLERIU\C\GSL-2.1\LIB\WIN32\RELEASE\CBLAS.PDB
^E:\STOLERIU\C\GSL-2.1\CBLAS\CGBMV.C
E:\STOLERIU\C\GSL-2.1\LIB\WIN32\RELEASE\CBLAS.PDB
^E:\STOLERIU\C\GSL-2.1\CBLAS\CGEMM.C
E:\STOLERIU\C\GSL-2.1\LIB\WIN32\RELEASE\CBLAS.PDB
^E:\STOLERIU\C\GSL-2.1\CBLAS\CGEMV.C
E:\STOLERIU\C\GSL-2.1\LIB\WIN32\RELEASE\CBLAS.PDB
^E:\STOLERIU\C\GSL-2.1\CBLAS\CGERC.C
E:\STOLERIU\C\GSL-2.1\LIB\WIN32\RELEASE\CBLAS.PDB
^E:\STOLERIU\C\GSL-2.1\CBLAS\CGERU.C
E:\STOLERIU\C\GSL-2.1\LIB\WIN32\RELEASE\CBLAS.PDB
^E:\STOLERIU\C\GSL-2.1\CBLAS\CHBMV.C
E:\STOLERIU\C\GSL-2.1\LIB\WIN32\RELEASE\CBLAS.PDB
^E:\STOLERIU\C\GSL-2.1\CBLAS\CHEMM.C
E:\STOLERIU\C\GSL-2.1\LIB\WIN32\RELEASE\CBLAS.PDB
^E:\STOLERIU\C\GSL-2.1\CBLAS\CHEMV.C
E:\STOLERIU\C\GSL-2.1\LIB\WIN32\RELEASE\CBLAS.PDB
^E:\STOLERIU\C\GSL-2.1\CBLAS\CHER.C
E:\STOLERIU\C\GSL-2.1\LIB\WIN32\RELEASE\CBLAS.PDB
^E:\STOLERIU\C\GSL-2.1\CBLAS\CHER2.C
E:\STOLERIU\C\GSL-2.1\LIB\WIN32\RELEASE\CBLAS.PDB
^E:\STOLERIU\C\GSL-2.1\CBLAS\CHER2K.C
E:\STOLERIU\C\GSL-2.1\LIB\WIN32\RELEASE\CBLAS.PDB
^E:\STOLERIU\C\GSL-2.1\CBLAS\CHERK.C
E:\STOLERIU\C\GSL-2.1\LIB\WIN32\RELEASE\CBLAS.PDB
^E:\STOLERIU\C\GSL-2.1\CBLAS\CHPMV.C
E:\STOLERIU\C\GSL-2.1\LIB\WIN32\RELEASE\CBLAS.PDB
^E:\STOLERIU\C\GSL-2.1\CBLAS\CHPR.C
E:\STOLERIU\C\GSL-2.1\LIB\WIN32\RELEASE\CBLAS.PDB
^E:\STOLERIU\C\GSL-2.1\CBLAS\CHPR2.C
E:\STOLERIU\C\GSL-2.1\LIB\WIN32\RELEASE\CBLAS.PDB
^E:\STOLERIU\C\GSL-2.1\CBLAS\CSCAL.C
E:\STOLERIU\C\GSL-2.1\LIB\WIN32\RELEASE\CBLAS.PDB
^E:\STOLERIU\C\GSL-2.1\CBLAS\CSSCAL.C
E:\STOLERIU\C\GSL-2.1\LIB\WIN32\RELEASE\CBLAS.PDB
^E:\STOLERIU\C\GSL-2.1\CBLAS\CSWAP.C
E:\STOLERIU\C\GSL-2.1\LIB\WIN32\RELEASE\CBLAS.PDB
^E:\STOLERIU\C\GSL-2.1\CBLAS\CSYMM.C
E:\STOLERIU\C\GSL-2.1\LIB\WIN32\RELEASE\CBLAS.PDB
^E:\STOLERIU\C\GSL-2.1\CBLAS\CSYR2K.C
E:\STOLERIU\C\GSL-2.1\LIB\WIN32\RELEASE\CBLAS.PDB
^E:\STOLERIU\C\GSL-2.1\CBLAS\CSYRK.C
E:\STOLERIU\C\GSL-2.1\LIB\WIN32\RELEASE\CBLAS.PDB
^E:\STOLERIU\C\GSL-2.1\CBLAS\CTBMV.C
E:\STOLERIU\C\GSL-2.1\LIB\WIN32\RELEASE\CBLAS.PDB
^E:\STOLERIU\C\GSL-2.1\CBLAS\CTBSV.C
E:\STOLERIU\C\GSL-2.1\LIB\WIN32\RELEASE\CBLAS.PDB
^E:\STOLERIU\C\GSL-2.1\CBLAS\CTPMV.C
E:\STOLERIU\C\GSL-2.1\LIB\WIN32\RELEASE\CBLAS.PDB
^E:\STOLERIU\C\GSL-2.1\CBLAS\CTPSV.C
E:\STOLERIU\C\GSL-2.1\LIB\WIN32\RELEASE\CBLAS.PDB
^E:\STOLERIU\C\GSL-2.1\CBLAS\CTRMM.C
E:\STOLERIU\C\GSL-2.1\LIB\WIN32\RELEASE\CBLAS.PDB
^E:\STOLERIU\C\GSL-2.1\CBLAS\CTRMV.C
E:\STOLERIU\C\GSL-2.1\LIB\WIN32\RELEASE\CBLAS.PDB
^E:\STOLERIU\C\GSL-2.1\CBLAS\CTRSM.C
E:\STOLERIU\C\GSL-2.1\LIB\WIN32\RELEASE\CBLAS.PDB
^E:\STOLERIU\C\GSL-2.1\CBLAS\CTRSV.C
E:\STOLERIU\C\GSL-2.1\LIB\WIN32\RELEASE\CBLAS.PDB
^E:\STOLERIU\C\GSL-2.1\CBLAS\DASUM.C
E:\STOLERIU\C\GSL-2.1\LIB\WIN32\RELEASE\CBLAS.PDB
^E:\STOLERIU\C\GSL-2.1\CBLAS\DAXPY.C
E:\STOLERIU\C\GSL-2.1\LIB\WIN32\RELEASE\CBLAS.PDB
^E:\STOLERIU\C\GSL-2.1\CBLAS\DCOPY.C
E:\STOLERIU\C\GSL-2.1\LIB\WIN32\RELEASE\CBLAS.PDB
^E:\STOLERIU\C\GSL-2.1\CBLAS\DDOT.C
E:\STOLERIU\C\GSL-2.1\LIB\WIN32\RELEASE\CBLAS.PDB
^E:\STOLERIU\C\GSL-2.1\CBLAS\DGBMV.C
E:\STOLERIU\C\GSL-2.1\LIB\WIN32\RELEASE\CBLAS.PDB
^E:\STOLERIU\C\GSL-2.1\CBLAS\DGEMM.C
E:\STOLERIU\C\GSL-2.1\LIB\WIN32\RELEASE\CBLAS.PDB
^E:\STOLERIU\C\GSL-2.1\CBLAS\DGEMV.C
E:\STOLERIU\C\GSL-2.1\LIB\WIN32\RELEASE\CBLAS.PDB
^E:\STOLERIU\C\GSL-2.1\CBLAS\DGER.C
E:\STOLERIU\C\GSL-2.1\LIB\WIN32\RELEASE\CBLAS.PDB
^E:\STOLERIU\C\GSL-2.1\CBLAS\DNRM2.C
E:\STOLERIU\C\GSL-2.1\LIB\WIN32\RELEASE\CBLAS.PDB
^E:\STOLERIU\C\GSL-2.1\CBLAS\DROT.C
E:\STOLERIU\C\GSL-2.1\LIB\WIN32\RELEASE\CBLAS.PDB
^E:\STOLERIU\C\GSL-2.1\CBLAS\DROTG.C
E:\STOLERIU\C\GSL-2.1\LIB\WIN32\RELEASE\CBLAS.PDB
^E:\STOLERIU\C\GSL-2.1\CBLAS\DROTM.C
E:\STOLERIU\C\GSL-2.1\LIB\WIN32\RELEASE\CBLAS.PDB
^E:\STOLERIU\C\GSL-2.1\CBLAS\DROTMG.C
E:\STOLERIU\C\GSL-2.1\LIB\WIN32\RELEASE\CBLAS.PDB
^E:\STOLERIU\C\GSL-2.1\CBLAS\DSBMV.C
E:\STOLERIU\C\GSL-2.1\LIB\WIN32\RELEASE\CBLAS.PDB
^E:\STOLERIU\C\GSL-2.1\CBLAS\DSCAL.C
E:\STOLERIU\C\GSL-2.1\LIB\WIN32\RELEASE\CBLAS.PDB
^E:\STOLERIU\C\GSL-2.1\CBLAS\DSDOT.C
E:\STOLERIU\C\GSL-2.1\LIB\WIN32\RELEASE\CBLAS.PDB
^E:\STOLERIU\C\GSL-2.1\CBLAS\DSPMV.C
E:\STOLERIU\C\GSL-2.1\LIB\WIN32\RELEASE\CBLAS.PDB
^E:\STOLERIU\C\GSL-2.1\CBLAS\DSPR.C
E:\STOLERIU\C\GSL-2.1\LIB\WIN32\RELEASE\CBLAS.PDB
^E:\STOLERIU\C\GSL-2.1\CBLAS\DSPR2.C
E:\STOLERIU\C\GSL-2.1\LIB\WIN32\RELEASE\CBLAS.PDB
^E:\STOLERIU\C\GSL-2.1\CBLAS\DSWAP.C
E:\STOLERIU\C\GSL-2.1\LIB\WIN32\RELEASE\CBLAS.PDB
^E:\STOLERIU\C\GSL-2.1\CBLAS\DSYMM.C
E:\STOLERIU\C\GSL-2.1\LIB\WIN32\RELEASE\CBLAS.PDB
^E:\STOLERIU\C\GSL-2.1\CBLAS\DSYMV.C
E:\STOLERIU\C\GSL-2.1\LIB\WIN32\RELEASE\CBLAS.PDB
^E:\STOLERIU\C\GSL-2.1\CBLAS\DSYR.C
E:\STOLERIU\C\GSL-2.1\LIB\WIN32\RELEASE\CBLAS.PDB
^E:\STOLERIU\C\GSL-2.1\CBLAS\DSYR2.C
E:\STOLERIU\C\GSL-2.1\LIB\WIN32\RELEASE\CBLAS.PDB
^E:\STOLERIU\C\GSL-2.1\CBLAS\DSYR2K.C
E:\STOLERIU\C\GSL-2.1\LIB\WIN32\RELEASE\CBLAS.PDB
^E:\STOLERIU\C\GSL-2.1\CBLAS\DSYRK.C
E:\STOLERIU\C\GSL-2.1\LIB\WIN32\RELEASE\CBLAS.PDB
^E:\STOLERIU\C\GSL-2.1\CBLAS\DTBMV.C
E:\STOLERIU\C\GSL-2.1\LIB\WIN32\RELEASE\CBLAS.PDB
^E:\STOLERIU\C\GSL-2.1\CBLAS\DTBSV.C
E:\STOLERIU\C\GSL-2.1\LIB\WIN32\RELEASE\CBLAS.PDB
^E:\STOLERIU\C\GSL-2.1\CBLAS\DTPMV.C
E:\STOLERIU\C\GSL-2.1\LIB\WIN32\RELEASE\CBLAS.PDB
^E:\STOLERIU\C\GSL-2.1\CBLAS\DTPSV.C
E:\STOLERIU\C\GSL-2.1\LIB\WIN32\RELEASE\CBLAS.PDB
^E:\STOLERIU\C\GSL-2.1\CBLAS\DTRMM.C
E:\STOLERIU\C\GSL-2.1\LIB\WIN32\RELEASE\CBLAS.PDB
^E:\STOLERIU\C\GSL-2.1\CBLAS\DTRMV.C
E:\STOLERIU\C\GSL-2.1\LIB\WIN32\RELEASE\CBLAS.PDB
^E:\STOLERIU\C\GSL-2.1\CBLAS\DTRSM.C
E:\STOLERIU\C\GSL-2.1\LIB\WIN32\RELEASE\CBLAS.PDB
^E:\STOLERIU\C\GSL-2.1\CBLAS\DTRSV.C
E:\STOLERIU\C\GSL-2.1\LIB\WIN32\RELEASE\CBLAS.PDB
^E:\STOLERIU\C\GSL-2.1\CBLAS\DZASUM.C
E:\STOLERIU\C\GSL-2.1\LIB\WIN32\RELEASE\CBLAS.PDB
^E:\STOLERIU\C\GSL-2.1\CBLAS\DZNRM2.C
E:\STOLERIU\C\GSL-2.1\LIB\WIN32\RELEASE\CBLAS.PDB
^E:\STOLERIU\C\GSL-2.1\CBLAS\ICAMAX.C
E:\STOLERIU\C\GSL-2.1\LIB\WIN32\RELEASE\CBLAS.PDB
^E:\STOLERIU\C\GSL-2.1\CBLAS\IDAMAX.C
E:\STOLERIU\C\GSL-2.1\LIB\WIN32\RELEASE\CBLAS.PDB
^E:\STOLERIU\C\GSL-2.1\CBLAS\ISAMAX.C
E:\STOLERIU\C\GSL-2.1\LIB\WIN32\RELEASE\CBLAS.PDB
^E:\STOLERIU\C\GSL-2.1\CBLAS\IZAMAX.C
E:\STOLERIU\C\GSL-2.1\LIB\WIN32\RELEASE\CBLAS.PDB
^E:\STOLERIU\C\GSL-2.1\CBLAS\SASUM.C
E:\STOLERIU\C\GSL-2.1\LIB\WIN32\RELEASE\CBLAS.PDB
^E:\STOLERIU\C\GSL-2.1\CBLAS\SAXPY.C
E:\STOLERIU\C\GSL-2.1\LIB\WIN32\RELEASE\CBLAS.PDB
^E:\STOLERIU\C\GSL-2.1\CBLAS\SCASUM.C
E:\STOLERIU\C\GSL-2.1\LIB\WIN32\RELEASE\CBLAS.PDB
^E:\STOLERIU\C\GSL-2.1\CBLAS\SCNRM2.C
E:\STOLERIU\C\GSL-2.1\LIB\WIN32\RELEASE\CBLAS.PDB
^E:\STOLERIU\C\GSL-2.1\CBLAS\SCOPY.C
E:\STOLERIU\C\GSL-2.1\LIB\WIN32\RELEASE\CBLAS.PDB
^E:\STOLERIU\C\GSL-2.1\CBLAS\SDOT.C
E:\STOLERIU\C\GSL-2.1\LIB\WIN32\RELEASE\CBLAS.PDB
^E:\STOLERIU\C\GSL-2.1\CBLAS\SDSDOT.C
E:\STOLERIU\C\GSL-2.1\LIB\WIN32\RELEASE\CBLAS.PDB
^E:\STOLERIU\C\GSL-2.1\CBLAS\SGBMV.C
E:\STOLERIU\C\GSL-2.1\LIB\WIN32\RELEASE\CBLAS.PDB
^E:\STOLERIU\C\GSL-2.1\CBLAS\SGEMM.C
E:\STOLERIU\C\GSL-2.1\LIB\WIN32\RELEASE\CBLAS.PDB
^E:\STOLERIU\C\GSL-2.1\CBLAS\SGEMV.C
E:\STOLERIU\C\GSL-2.1\LIB\WIN32\RELEASE\CBLAS.PDB
^E:\STOLERIU\C\GSL-2.1\CBLAS\SGER.C
E:\STOLERIU\C\GSL-2.1\LIB\WIN32\RELEASE\CBLAS.PDB
^E:\STOLERIU\C\GSL-2.1\CBLAS\SNRM2.C
E:\STOLERIU\C\GSL-2.1\LIB\WIN32\RELEASE\CBLAS.PDB
^E:\STOLERIU\C\GSL-2.1\CBLAS\SROT.C
E:\STOLERIU\C\GSL-2.1\LIB\WIN32\RELEASE\CBLAS.PDB
^E:\STOLERIU\C\GSL-2.1\CBLAS\SROTG.C
E:\STOLERIU\C\GSL-2.1\LIB\WIN32\RELEASE\CBLAS.PDB
^E:\STOLERIU\C\GSL-2.1\CBLAS\SROTM.C
E:\STOLERIU\C\GSL-2.1\LIB\WIN32\RELEASE\CBLAS.PDB
^E:\STOLERIU\C\GSL-2.1\CBLAS\SROTMG.C
E:\STOLERIU\C\GSL-2.1\LIB\WIN32\RELEASE\CBLAS.PDB
^E:\STOLERIU\C\GSL-2.1\CBLAS\SSBMV.C
E:\STOLERIU\C\GSL-2.1\LIB\WIN32\RELEASE\CBLAS.PDB
^E:\STOLERIU\C\GSL-2.1\CBLAS\SSCAL.C
E:\STOLERIU\C\GSL-2.1\LIB\WIN32\RELEASE\CBLAS.PDB
^E:\STOLERIU\C\GSL-2.1\CBLAS\SSPMV.C
E:\STOLERIU\C\GSL-2.1\LIB\WIN32\RELEASE\CBLAS.PDB
^E:\STOLERIU\C\GSL-2.1\CBLAS\SSPR.C
E:\STOLERIU\C\GSL-2.1\LIB\WIN32\RELEASE\CBLAS.PDB
^E:\STOLERIU\C\GSL-2.1\CBLAS\SSPR2.C
E:\STOLERIU\C\GSL-2.1\LIB\WIN32\RELEASE\CBLAS.PDB
^E:\STOLERIU\C\GSL-2.1\CBLAS\SSWAP.C
E:\STOLERIU\C\GSL-2.1\LIB\WIN32\RELEASE\CBLAS.PDB
^E:\STOLERIU\C\GSL-2.1\CBLAS\SSYMM.C
E:\STOLERIU\C\GSL-2.1\LIB\WIN32\RELEASE\CBLAS.PDB
^E:\STOLERIU\C\GSL-2.1\CBLAS\SSYMV.C
E:\STOLERIU\C\GSL-2.1\LIB\WIN32\RELEASE\CBLAS.PDB
^E:\STOLERIU\C\GSL-2.1\CBLAS\SSYR.C
E:\STOLERIU\C\GSL-2.1\LIB\WIN32\RELEASE\CBLAS.PDB
^E:\STOLERIU\C\GSL-2.1\CBLAS\SSYR2.C
E:\STOLERIU\C\GSL-2.1\LIB\WIN32\RELEASE\CBLAS.PDB
^E:\STOLERIU\C\GSL-2.1\CBLAS\SSYR2K.C
E:\STOLERIU\C\GSL-2.1\LIB\WIN32\RELEASE\CBLAS.PDB
^E:\STOLERIU\C\GSL-2.1\CBLAS\SSYRK.C
E:\STOLERIU\C\GSL-2.1\LIB\WIN32\RELEASE\CBLAS.PDB
^E:\STOLERIU\C\GSL-2.1\CBLAS\STBMV.C
E:\STOLERIU\C\GSL-2.1\LIB\WIN32\RELEASE\CBLAS.PDB
^E:\STOLERIU\C\GSL-2.1\CBLAS\STBSV.C
E:\STOLERIU\C\GSL-2.1\LIB\WIN32\RELEASE\CBLAS.PDB
^E:\STOLERIU\C\GSL-2.1\CBLAS\STPMV.C
E:\STOLERIU\C\GSL-2.1\LIB\WIN32\RELEASE\CBLAS.PDB
^E:\STOLERIU\C\GSL-2.1\CBLAS\STPSV.C
E:\STOLERIU\C\GSL-2.1\LIB\WIN32\RELEASE\CBLAS.PDB
^E:\STOLERIU\C\GSL-2.1\CBLAS\STRMM.C
E:\STOLERIU\C\GSL-2.1\LIB\WIN32\RELEASE\CBLAS.PDB
^E:\STOLERIU\C\GSL-2.1\CBLAS\STRMV.C
E:\STOLERIU\C\GSL-2.1\LIB\WIN32\RELEASE\CBLAS.PDB
^E:\STOLERIU\C\GSL-2.1\CBLAS\STRSM.C
E:\STOLERIU\C\GSL-2.1\LIB\WIN32\RELEASE\CBLAS.PDB
^E:\STOLERIU\C\GSL-2.1\CBLAS\STRSV.C
E:\STOLERIU\C\GSL-2.1\LIB\WIN32\RELEASE\CBLAS.PDB
^E:\STOLERIU\C\GSL-2.1\CBLAS\XERBLA.C
E:\STOLERIU\C\GSL-2.1\LIB\WIN32\RELEASE\CBLAS.PDB
^E:\STOLERIU\C\GSL-2.1\CBLAS\ZAXPY.C
E:\STOLERIU\C\GSL-2.1\LIB\WIN32\RELEASE\CBLAS.PDB
^E:\STOLERIU\C\GSL-2.1\CBLAS\ZCOPY.C
E:\STOLERIU\C\GSL-2.1\LIB\WIN32\RELEASE\CBLAS.PDB
^E:\STOLERIU\C\GSL-2.1\CBLAS\ZDOTC_SUB.C
E:\STOLERIU\C\GSL-2.1\LIB\WIN32\RELEASE\CBLAS.PDB
^E:\STOLERIU\C\GSL-2.1\CBLAS\ZDOTU_SUB.C
E:\STOLERIU\C\GSL-2.1\LIB\WIN32\RELEASE\CBLAS.PDB
^E:\STOLERIU\C\GSL-2.1\CBLAS\ZDSCAL.C
E:\STOLERIU\C\GSL-2.1\LIB\WIN32\RELEASE\CBLAS.PDB
^E:\STOLERIU\C\GSL-2.1\CBLAS\ZGBMV.C
E:\STOLERIU\C\GSL-2.1\LIB\WIN32\RELEASE\CBLAS.PDB
^E:\STOLERIU\C\GSL-2.1\CBLAS\ZGEMM.C
E:\STOLERIU\C\GSL-2.1\LIB\WIN32\RELEASE\CBLAS.PDB
^E:\STOLERIU\C\GSL-2.1\CBLAS\ZGEMV.C
E:\STOLERIU\C\GSL-2.1\LIB\WIN32\RELEASE\CBLAS.PDB
^E:\STOLERIU\C\GSL-2.1\CBLAS\ZGERC.C
E:\STOLERIU\C\GSL-2.1\LIB\WIN32\RELEASE\CBLAS.PDB
^E:\STOLERIU\C\GSL-2.1\CBLAS\ZGERU.C
E:\STOLERIU\C\GSL-2.1\LIB\WIN32\RELEASE\CBLAS.PDB
^E:\STOLERIU\C\GSL-2.1\CBLAS\ZHBMV.C
E:\STOLERIU\C\GSL-2.1\LIB\WIN32\RELEASE\CBLAS.PDB
^E:\STOLERIU\C\GSL-2.1\CBLAS\ZHEMM.C
E:\STOLERIU\C\GSL-2.1\LIB\WIN32\RELEASE\CBLAS.PDB
^E:\STOLERIU\C\GSL-2.1\CBLAS\ZHEMV.C
E:\STOLERIU\C\GSL-2.1\LIB\WIN32\RELEASE\CBLAS.PDB
^E:\STOLERIU\C\GSL-2.1\CBLAS\ZHER.C
E:\STOLERIU\C\GSL-2.1\LIB\WIN32\RELEASE\CBLAS.PDB
^E:\STOLERIU\C\GSL-2.1\CBLAS\ZHER2.C
E:\STOLERIU\C\GSL-2.1\LIB\WIN32\RELEASE\CBLAS.PDB
^E:\STOLERIU\C\GSL-2.1\CBLAS\ZHER2K.C
E:\STOLERIU\C\GSL-2.1\LIB\WIN32\RELEASE\CBLAS.PDB
^E:\STOLERIU\C\GSL-2.1\CBLAS\ZHERK.C
E:\STOLERIU\C\GSL-2.1\LIB\WIN32\RELEASE\CBLAS.PDB
^E:\STOLERIU\C\GSL-2.1\CBLAS\ZHPMV.C
E:\STOLERIU\C\GSL-2.1\LIB\WIN32\RELEASE\CBLAS.PDB
^E:\STOLERIU\C\GSL-2.1\CBLAS\ZHPR.C
E:\STOLERIU\C\GSL-2.1\LIB\WIN32\RELEASE\CBLAS.PDB
^E:\STOLERIU\C\GSL-2.1\CBLAS\ZHPR2.C
E:\STOLERIU\C\GSL-2.1\LIB\WIN32\RELEASE\CBLAS.PDB
^E:\STOLERIU\C\GSL-2.1\CBLAS\ZSCAL.C
E:\STOLERIU\C\GSL-2.1\LIB\WIN32\RELEASE\CBLAS.PDB
^E:\STOLERIU\C\GSL-2.1\CBLAS\ZSWAP.C
E:\STOLERIU\C\GSL-2.1\LIB\WIN32\RELEASE\CBLAS.PDB
^E:\STOLERIU\C\GSL-2.1\CBLAS\ZSYMM.C
E:\STOLERIU\C\GSL-2.1\LIB\WIN32\RELEASE\CBLAS.PDB
^E:\STOLERIU\C\GSL-2.1\CBLAS\ZSYR2K.C
E:\STOLERIU\C\GSL-2.1\LIB\WIN32\RELEASE\CBLAS.PDB
^E:\STOLERIU\C\GSL-2.1\CBLAS\ZSYRK.C
E:\STOLERIU\C\GSL-2.1\LIB\WIN32\RELEASE\CBLAS.PDB
^E:\STOLERIU\C\GSL-2.1\CBLAS\ZTBMV.C
E:\STOLERIU\C\GSL-2.1\LIB\WIN32\RELEASE\CBLAS.PDB
^E:\STOLERIU\C\GSL-2.1\CBLAS\ZTBSV.C
E:\STOLERIU\C\GSL-2.1\LIB\WIN32\RELEASE\CBLAS.PDB
^E:\STOLERIU\C\GSL-2.1\CBLAS\ZTPMV.C
E:\STOLERIU\C\GSL-2.1\LIB\WIN32\RELEASE\CBLAS.PDB
^E:\STOLERIU\C\GSL-2.1\CBLAS\ZTPSV.C
E:\STOLERIU\C\GSL-2.1\LIB\WIN32\RELEASE\CBLAS.PDB
^E:\STOLERIU\C\GSL-2.1\CBLAS\ZTRMM.C
E:\STOLERIU\C\GSL-2.1\LIB\WIN32\RELEASE\CBLAS.PDB
^E:\STOLERIU\C\GSL-2.1\CBLAS\ZTRMV.C
E:\STOLERIU\C\GSL-2.1\LIB\WIN32\RELEASE\CBLAS.PDB
^E:\STOLERIU\C\GSL-2.1\CBLAS\ZTRSM.C
E:\STOLERIU\C\GSL-2.1\LIB\WIN32\RELEASE\CBLAS.PDB
^E:\STOLERIU\C\GSL-2.1\CBLAS\ZTRSV.C
E:\STOLERIU\C\GSL-2.1\LIB\WIN32\RELEASE\CBLAS.PDB
